<?xml version="1.0" encoding="UTF-8" standalone="no"?>
<!-- Created with Inkscape (http://www.inkscape.org/) -->

<svg
   width="32"
   height="32"
   viewBox="0 0 8.4666665 8.4666665"
   version="1.1"
   id="svg5"
   inkscape:version="1.2.2 (b0a8486541, 2022-12-01)"
   sodipodi:docname="arrow.svg"
   xmlns:inkscape="http://www.inkscape.org/namespaces/inkscape"
   xmlns:sodipodi="http://sodipodi.sourceforge.net/DTD/sodipodi-0.dtd"
   xmlns="http://www.w3.org/2000/svg"
   xmlns:svg="http://www.w3.org/2000/svg">
  <sodipodi:namedview
     id="namedview7"
     pagecolor="#ffffff"
     bordercolor="#666666"
     borderopacity="1.0"
     inkscape:showpageshadow="2"
     inkscape:pageopacity="0.0"
     inkscape:pagecheckerboard="0"
     inkscape:deskcolor="#d1d1d1"
     inkscape:document-units="px"
     showgrid="true"
     inkscape:zoom="15.233972"
     inkscape:cx="11.914161"
     inkscape:cy="18.609723"
     inkscape:window-width="1906"
     inkscape:window-height="1030"
     inkscape:window-x="0"
     inkscape:window-y="0"
     inkscape:window-maximized="1"
     inkscape:current-layer="layer2">
    <inkscape:grid
       type="xygrid"
       id="grid132"
       originx="0"
       originy="0"
       empspacing="4" />
  </sodipodi:namedview>
  <defs
     id="defs2" />
  <g
     inkscape:label="Layer 1"
     inkscape:groupmode="layer"
     id="layer1"
     style="display:none">
    <path
       id="path15702"
       style="fill:#008f4f;fill-opacity:1;stroke:#000000;stroke-width:0.79375;stroke-linecap:round;stroke-linejoin:round;stroke-dasharray:none;stroke-opacity:1"
       d="M 6.6145832,0.79375002 C 5.8208332,3.4395833 3.7041635,7.4083332 0.52916666,7.4083332 c -0.26458333,0.5291666 -0.26458333,1.5875 0,2.1166661 3.17499674,0 5.29166654,3.9687507 6.08541654,6.6145837 C 7.9374998,16.404166 9.5249998,15.610416 9.5249999,14.2875 8.9958337,12.700001 6.6145816,10.31875 5.0270832,9.5249998 c 1.5874984,5e-7 6.8791668,0 9.5249998,1.5875002 1.058333,0 1.852083,-0.79375 1.852083,-2.6458335 0,-1.8520833 -0.529166,-2.6458333 -1.852083,-2.6458334 C 11.90625,7.4083332 6.6145816,7.4083322 5.0270832,7.4083332 6.6145816,6.614583 8.9958334,4.2333317 9.5249999,2.6458333 9.5249998,1.3229166 7.9374998,0.52916666 6.6145832,0.79375002 Z"
       sodipodi:nodetypes="cccccccccccc" />
  </g>
  <g
     inkscape:groupmode="layer"
     id="layer2"
     inkscape:label="Layer 2"
     style="display:inline">
    <path
       style="display:inline;fill:#008f4f;fill-opacity:1;stroke:#000000;stroke-width:0.396874;stroke-linecap:butt;stroke-linejoin:miter;stroke-dasharray:none;stroke-opacity:1"
       d="m 8.2020832,4.2333332 c 0,-0.7937488 -0.5291679,-1.3229087 -1.3229168,-1.3229126 -0.79375,-3.9e-6 -4.3160128,0.7937468 -4.3160128,0.7937468 -1e-7,-0.5291659 2.2489549,-1.0583317 2.2489548,-2.3812464 0,-0.79374868 -0.446485,-1.32292058045223 -1.3725252,-1.05833768 -1.2067385,0.3447825 -2.2204679,1.79510218 -2.91041657,3.17499998 -0.2645833,0.5291667 -0.2645833,1.0583334 0,1.5874999 0.68994897,1.3798979 1.70367807,2.8302175 2.91041657,3.175 0.9260402,0.2645831 1.3725252,-0.2645889 1.3725252,-1.0583377 1e-7,-1.322915 -2.2489549,-1.8520807 -2.2489548,-2.3812464 0,0 3.5222628,0.7937509 4.3160128,0.7937508 0.7937489,-1e-7 1.3229168,-0.5291667 1.3229168,-1.3229167 z"
       id="path412"
       sodipodi:nodetypes="sscsssssscss" />
  </g>
</svg>
