<?xml version="1.0" encoding="UTF-8" standalone="no"?>
<!-- Created with Inkscape (http://www.inkscape.org/) -->

<svg
   width="32"
   height="32"
   viewBox="0 0 8.4666665 8.4666665"
   version="1.1"
   id="svg5"
   inkscape:version="1.2.2 (b0a8486541, 2022-12-01)"
   sodipodi:docname="default.svg"
   xmlns:inkscape="http://www.inkscape.org/namespaces/inkscape"
   xmlns:sodipodi="http://sodipodi.sourceforge.net/DTD/sodipodi-0.dtd"
   xmlns="http://www.w3.org/2000/svg"
   xmlns:svg="http://www.w3.org/2000/svg">
  <sodipodi:namedview
     id="namedview7"
     pagecolor="#ffffff"
     bordercolor="#666666"
     borderopacity="1.0"
     inkscape:showpageshadow="2"
     inkscape:pageopacity="0.0"
     inkscape:pagecheckerboard="0"
     inkscape:deskcolor="#d1d1d1"
     inkscape:document-units="px"
     showgrid="true"
     inkscape:zoom="16"
     inkscape:cx="2.96875"
     inkscape:cy="17.71875"
     inkscape:window-width="1906"
     inkscape:window-height="1030"
     inkscape:window-x="0"
     inkscape:window-y="0"
     inkscape:window-maximized="1"
     inkscape:current-layer="layer1">
    <inkscape:grid
       type="xygrid"
       id="grid132"
       originx="0"
       originy="0"
       empspacing="4" />
  </sodipodi:namedview>
  <defs
     id="defs2" />
  <g
     inkscape:label="Layer 1"
     inkscape:groupmode="layer"
     id="layer1">
    <path
       style="fill:#008f4f;fill-opacity:1;stroke:#000000;stroke-width:0.442812;stroke-linecap:butt;stroke-linejoin:miter;stroke-dasharray:none;stroke-opacity:1"
       d="M 0.57992664,0.58029188 C -0.25504808,1.4152666 0.99741402,6.0076275 2.6673635,7.677577 c 0.4174873,0.4174873 1.0437183,0.6262311 1.6699493,0 C 4.963544,7.051346 4.1285692,5.7988838 4.963544,4.9639091 c 0.8349746,-0.8349747 2.0874368,0 2.7136678,-0.6262311 0.6262311,-0.626231 0.4174873,-1.252462 0,-1.6699493 C 6.0072623,0.99777922 1.4149014,-0.25468289 0.57992664,0.58029188 Z"
       id="path562"
       sodipodi:nodetypes="sssssss"
       inkscape:transform-center-x="-3.612808"
       inkscape:transform-center-y="3.613754" />
  </g>
</svg>
