<?xml version="1.0" encoding="UTF-8" standalone="no"?>
<!-- Created with Inkscape (http://www.inkscape.org/) -->

<svg
   version="1.1"
   id="svg18"
   width="286.7428"
   height="173.85786"
   viewBox="0 0 286.74281 173.85787"
   sodipodi:docname="feuilles-chene.svg"
   inkscape:version="1.2.2 (1:1.2.2+202212051552+b0a8486541)"
   xmlns:inkscape="http://www.inkscape.org/namespaces/inkscape"
   xmlns:sodipodi="http://sodipodi.sourceforge.net/DTD/sodipodi-0.dtd"
   xmlns="http://www.w3.org/2000/svg"
   xmlns:svg="http://www.w3.org/2000/svg">
  <defs
     id="defs22">
    <clipPath
       clipPathUnits="userSpaceOnUse"
       id="clipPath36">
      <path
         d="M 17.008,20.218 H 147.402 V 235.276 H 17.008 Z"
         id="path34" />
    </clipPath>
    <clipPath
       clipPathUnits="userSpaceOnUse"
       id="clipPath232">
      <path
         d="M 17.008,20.218 H 147.402 V 235.276 H 17.008 Z"
         id="path230" />
    </clipPath>
  </defs>
  <sodipodi:namedview
     id="namedview20"
     pagecolor="#ffffff"
     bordercolor="#666666"
     borderopacity="1.0"
     inkscape:showpageshadow="2"
     inkscape:pageopacity="1"
     inkscape:pagecheckerboard="0"
     inkscape:deskcolor="#d1d1d1"
     showgrid="false"
     inkscape:zoom="1.1078193"
     inkscape:cx="182.34021"
     inkscape:cy="125.02039"
     inkscape:window-width="1366"
     inkscape:window-height="704"
     inkscape:window-x="0"
     inkscape:window-y="0"
     inkscape:window-maximized="1"
     inkscape:current-layer="g46" />
  <g
     id="g26"
     inkscape:groupmode="layer"
     inkscape:label="Page 1"
     transform="matrix(1.3333333,0,0,-1.3333333,-28.836133,315.73413)"
     style="display:inline">
    <g
       id="g18615"
       transform="rotate(-90,127.6089,126.1998)">
      <g
         id="g30">
        <g
           id="g32"
           clip-path="url(#clipPath36)">
          <g
             id="g50"
             transform="translate(135.9491,157.1359)" />
        </g>
      </g>
      <g
         id="g8845">
        <path
           d="M 146.291,20.878 H 17.913 v 213.508 h 128.378 z"
           style="fill:#ffbc00;fill-opacity:1;fill-rule:nonzero;stroke:none"
           id="path28" />
        <g
           id="g38"
           transform="translate(48.3205,177.6158)"
           style="display:inline">
          <path
             d="m 0,0 c -0.454,-0.678 -0.785,-1.498 -0.982,-2.519 -0.236,-1.228 -0.431,-2.305 -1.115,-3.365 -0.56,-0.869 -0.932,-1.585 -0.913,-2.662 0.028,-1.548 0.923,-3.082 2.299,-3.844 2.031,-1.124 4.703,-0.583 6.825,-0.067 3.622,0.879 7.201,2.316 10.442,4.15 4.568,2.582 8.736,6.872 6.143,12.375 C 21.106,7.444 17.664,9.066 14.043,9.081 12.096,9.089 10.492,8.227 9.182,6.776 8.554,6.083 8.101,5.196 7.482,4.524 6.808,3.79 5.702,3.454 4.776,3.114 2.686,2.35 1.032,1.543 0,0"
             style="fill:#008f4f;fill-opacity:1;fill-rule:nonzero;stroke:none"
             id="path40" />
        </g>
        <g
           id="g42"
           transform="translate(115.3833,210.1011)"
           style="display:inline">
          <path
             d="m 0,0 c -0.192,-0.21 -0.402,-0.409 -0.617,-0.598 -1.162,-1.029 -2.595,-1.232 -4.062,-1.632 -1.03,-0.282 -2.079,-0.504 -3.045,-0.985 -1.137,-0.569 -1.914,-1.564 -2.957,-2.261 -1.932,-1.291 -4.379,-2.207 -6.63,-2.686 -1.647,-0.352 -3.325,-0.557 -4.956,-0.991 -3.244,-0.86 -6.461,-1.804 -9.697,-2.724 -2.385,-0.68 -4.707,-1.335 -6.975,-2.368 -2.943,-1.343 -5.781,-3.057 -8.867,-4.064 -2.286,-0.746 -4.585,-1.512 -6.995,-1.707 -1.843,-0.148 -4.079,-0.21 -5.863,0.366 -1.216,0.392 -2.277,0.994 -3.54,1.302 -1.408,0.342 -2.755,0.803 -4.052,1.455 -2.597,1.305 -4.65,3.484 -5.821,6.143 -1.311,2.982 -1.138,6.358 -0.042,9.378 1.039,2.864 2.868,6.06 5.264,7.987 1.235,0.995 2.708,1.58 4.145,2.214 2.537,1.12 4.984,2.17 7.66,2.922 3.158,0.885 5.824,0.835 9.059,0.43 2.919,-0.368 5.825,-0.535 8.464,0.948 2.064,1.159 3.399,2.36 4.474,4.459 1.351,2.638 2.679,5.705 5.765,6.71 1.515,0.492 3.168,0.215 4.627,-0.343 1.458,-0.557 2.683,-1.575 3.629,-2.803 1.202,-1.556 1.765,-3.533 3.043,-5.031 1.229,-1.442 2.952,-1.143 4.664,-1.15 1.706,-0.008 3.165,-0.386 4.776,-0.924 1.475,-0.492 3.272,-0.699 4.296,-1.994 C -3.256,10.79 -2.718,8.977 -2.579,7.397 -2.513,6.651 -2.68,5.708 -2.181,5.082 -1.524,4.257 -0.363,3.927 0.34,3.113 1.325,1.971 0.828,0.9 0,0"
             style="fill:#008f4f;fill-opacity:1;fill-rule:nonzero;stroke:none"
             id="path44" />
        </g>
        <g
           id="g46"
           transform="translate(113.5272,110.9245)"
           style="display:inline">
          <path
             d="m 0,0 c -0.202,0.391 -0.39,0.784 -0.561,1.181 -1.219,2.805 -0.576,4.835 1.036,7.277 1.672,2.534 3.167,4.961 3.291,8.1 0.082,2.04 -0.508,3.164 -1.89,4.503 -1.381,1.341 -1.967,3.13 -3.86,3.967 -1.543,0.681 -3.328,0.541 -4.961,0.365 -2.796,-0.301 -4.976,-1.026 -7.391,-2.566 -6.153,-3.92 -10.778,-9.399 -14.632,-15.523 -7.352,-11.68 -12.647,-24.376 -17.327,-37.313 -1.11,-3.065 -2.264,-6.115 -3.429,-9.16 -0.548,-1.433 -1.423,-3.004 -1.705,-4.511 -0.246,-1.327 -0.501,-2.656 -0.804,-3.993 -0.403,-1.774 -0.718,-3.577 -0.78,-5.398 -0.11,-3.27 0.425,-7.474 2.853,-9.904 0.866,-0.867 1.985,-1.449 3.04,-2.053 1.219,-0.697 2.454,-1.358 3.832,-1.685 1.571,-0.374 3.203,-0.343 4.809,-0.353 1.486,-0.01 2.984,-0.081 4.465,0.066 3.003,0.296 6.262,1.421 7.673,-2.179 0.663,-1.684 0.748,-3.542 1.041,-5.312 0.233,-1.39 0.633,-2.73 0.986,-4.092 0.39,-1.493 0.689,-3.021 1.366,-4.421 0.872,-1.799 2.28,-3.265 3.868,-4.455 1.378,-1.031 2.946,-1.966 4.635,-2.369 1.346,-0.323 2.735,-0.223 4.104,-0.204 3.648,0.047 7.252,-0.262 10.898,0.063 3.073,0.274 6.086,0.598 9.175,0.558 1.87,-0.025 3.697,0.201 5.576,0.185 0.938,-0.004 1.996,-0.138 2.913,-0.029 0.149,0.017 1.115,0.224 1.202,0.294 1.113,0.934 -0.027,3.847 -0.267,4.94 -0.408,1.846 -0.862,3.681 -1.301,5.522 -0.304,1.267 -0.99,2.504 -1.042,3.802 -0.148,3.567 0.557,7.137 0.48,10.711 -0.041,1.959 -0.28,3.919 -0.891,5.787 -0.866,2.647 -2.45,4.779 -4.772,6.307 -1.869,1.23 -3.559,2.316 -4.841,4.204 -1.711,2.517 -2.191,5.323 -0.943,8.161 1.244,2.826 3.288,5.727 5.643,7.716 1.108,0.935 2.223,1.601 3.555,2.154 1.986,0.825 3.844,1.892 5.781,2.818 1.653,0.788 3.543,1.284 4.757,2.743 1.468,1.769 1.848,4.191 1.354,6.389 -0.475,2.127 -1.473,4.493 -2.786,6.242 -1.357,1.805 -3.397,2.505 -5.539,2.938 -2.765,0.56 -5.56,0.557 -8.363,0.735 C 5.613,-7.499 2.046,-3.949 0,0"
             style="fill:#008f4f;fill-opacity:1;fill-rule:nonzero;stroke:none"
             id="path48" />
        </g>
        <path
           d="m 0,0 c -0.003,4.527 -0.69,9.005 -1.542,13.425 -0.404,2.1 -1.749,4.211 -2.529,6.21 -0.548,1.407 -1.191,2.833 -1.364,4.342 -0.158,1.382 -0.866,2.563 -1.568,3.744 -0.701,1.178 -1.149,2.44 -1.803,3.633 -1.853,3.382 -2.784,7.279 -5.271,10.29 -1.028,1.244 -2.306,2.594 -3.641,3.51 -1.4,0.964 -3.018,1.546 -4.691,1.804 -0.784,0.121 -3.675,1.058 -1.946,2.098 1.37,0.827 3.09,0.8 4.617,1.114 1.243,0.253 2.5,0.308 3.753,0.44 1.152,0.121 2.319,0.168 3.459,-0.065 0.81,-0.166 1.559,-0.443 2.387,-0.5 1.796,-0.123 3.929,-0.653 5.373,-1.777 0.673,-0.523 1.072,-1.244 0.694,-2.1 -0.263,-0.592 -0.969,-0.737 -1.269,-1.422 -0.682,-1.56 -0.367,-3.452 0.307,-4.956 0.197,-0.436 0.468,-0.848 0.821,-1.172 1.172,-1.074 2.616,-0.488 4.009,-0.569 1.64,-0.095 1.551,-2.278 1.751,-3.47 0.129,-0.769 0.31,-1.593 0.812,-2.212 0.387,-0.477 0.924,-0.721 1.476,-0.954 0.476,-0.204 0.935,-0.421 1.269,-0.831 0.352,-0.43 0.538,-0.966 0.772,-1.46 0.547,-1.155 1.428,-1.94 2.648,-2.331 0.796,-0.257 1.831,-0.409 2.077,0.603 0.25,1.022 0.038,2.18 -0.031,3.213 -0.073,1.074 0.126,2.126 0.085,3.193 -0.048,1.229 -0.856,1.9 -1.823,2.503 -0.416,0.259 -0.67,0.769 -0.998,1.131 -0.398,0.438 -0.8,0.873 -1.144,1.357 -0.419,0.593 -0.729,1.25 -0.88,1.964 -0.269,1.261 -0.592,2.64 -0.958,3.864 -0.333,1.111 -1.323,1.827 -1.801,2.809 2.367,0.34 4.531,-0.507 6.673,-1.267 0.214,1.434 1.053,3.776 -0.637,4.434 -1.18,0.46 -3.127,0.533 -4.355,0.325 -2.815,-0.475 -4.884,-2.164 -7.395,-0.11 -0.97,0.793 -2.035,1.464 -3.185,1.96 -0.509,0.219 -0.96,0.448 -1.435,0.697 -0.497,0.261 -1.112,0.221 -1.634,0.412 -0.514,0.187 -1.021,0.36 -1.537,0.527 -1.011,0.329 -2.138,0.745 -3.188,0.847 -1.251,0.124 -2.63,0.23 -3.893,-0.014 -1.486,-0.289 -2.859,-0.77 -4.351,-1.038 -2.805,-0.504 -5.549,-1.804 -8.006,-3.218 -0.977,-0.562 -1.55,-1.581 -2.812,-1.181 -0.501,0.16 -0.911,0.51 -1.387,0.73 -0.568,0.265 -1.217,0.338 -1.82,0.5 -1.023,0.271 -2.014,0.407 -3.053,0.533 -1.042,0.125 -2.029,0.144 -3.074,0.051 -4.836,-0.426 -9.477,-2.223 -13.929,-4.062 -4.484,-1.854 -8.785,-4.15 -12.871,-6.763 -3.732,-2.385 -7.621,-5.184 -9.903,-9.055 -1.278,-2.165 -2.188,-4.947 -0.781,-7.272 0.79,-1.305 2.677,-2.5 4.022,-3.142 0.686,-0.329 5.352,-1.524 5.195,-2.398 -0.13,-0.734 -3.114,-1.173 -3.644,-1.308 -1.844,-0.466 -3.74,-0.796 -5.566,-1.324 -4.326,-1.251 -8.416,-3.234 -12.676,-4.69 -2.774,-0.947 -4.994,-2.382 -7.36,-4.092 -3.438,-2.484 -6.908,-4.943 -9.605,-8.263 -1.999,-2.464 -4.012,-5.479 -4.383,-8.708 -0.444,-3.885 0.822,-8.87 3.328,-11.903 1.055,-1.277 2.371,-1.932 3.968,-2.258 1.262,-0.258 2.754,-0.321 3.774,-1.208 2.635,-2.29 -1.125,-5.416 -2.872,-6.731 -2.584,-1.949 -4.144,-3.994 -4.641,-7.278 -0.411,-2.725 0.625,-5.05 2.563,-6.927 0.963,-0.935 1.843,-1.529 3.068,-1.999 1.315,-0.507 2.409,-1.429 3.769,-1.904 0.739,-0.256 1.513,-0.602 2.185,-1.056 -1.336,-1.64 -3.209,-2.496 -4.806,-3.824 -2.994,-2.486 -5.503,-6.225 -4.668,-10.353 0.861,-4.255 4.778,-5.529 8.619,-5.836 -1.28,-1.958 -3.038,-3.507 -4.279,-5.528 -1.463,-2.381 -3.027,-4.776 -2.437,-7.655 0.549,-2.682 0.322,-4.997 2.759,-6.844 1.741,-1.319 3.297,-1.654 5.406,-1.884 2.221,-0.242 3.602,0.099 5.524,1.292 1.763,1.093 3.34,2.342 4.934,3.665 1.451,1.206 2.845,2.541 4.564,3.359 2.237,1.068 3.196,0.278 3.597,-2.103 0.434,-2.579 1.752,-3.732 4.221,-4.56 1.697,-0.566 3.927,-0.516 5.625,0.041 2.606,0.855 5.009,3.363 6.409,5.685 0.565,0.937 1.105,1.867 1.616,2.846 1.063,2.024 1.734,3.964 2.396,6.164 0.539,1.794 0.935,3.553 1.546,5.357 0.318,0.94 0.485,1.895 0.802,2.83 0.278,0.815 0.685,1.512 0.905,2.398 1.995,0.271 3.286,-2.678 4.531,-3.879 1.672,-1.614 4.323,-1.993 6.524,-1.312 2.744,0.849 5.216,2.471 7.203,4.528 0.935,0.972 2.12,2.203 2.391,3.576 0.219,1.105 0.128,2.133 0.455,3.254 0.923,3.182 1.547,6.444 1.925,9.734 0.219,1.877 0.359,3.764 0.431,5.653 0.117,3.016 0.446,6.026 0.383,9.045 -0.042,2.027 -0.546,7.598 2.993,6.843 1.458,-0.31 2.512,-1.575 3.676,-2.407 0.961,-0.689 2.082,-1.098 3.226,-1.385 1.149,-0.289 2.206,-0.77 3.365,-1.057 2.545,-0.631 5.154,-0.438 7.478,0.828 5.939,3.233 8.876,11.297 10.258,17.544 C 0.232,-9.941 0.004,-4.858 0,0"
           style="display:inline;fill:#ff7680;fill-opacity:1;fill-rule:nonzero;stroke:none"
           id="path52"
           transform="translate(135.9491,157.1359)" />
        <g
           id="g54"
           transform="translate(92.088401,20.9267)"
           style="display:inline">
          <path
             d="M 0,0 C 0.212,-0.025 0.421,-0.056 0.624,-0.097 1.864,-0.347 3.489,-0.55 4.681,0.009 5.668,0.47 4.698,1.24 4.242,1.776 2.992,3.243 1.462,4.012 -0.082,5.091 -1.421,6.024 -2.264,7.49 -2.657,9.049 c -1.162,4.607 -1.144,9.387 -2.079,14.022 -0.688,-0.039 -1.622,0.59 -2.291,0.746 -0.939,0.22 -2.038,0.232 -2.977,0.326 -1.243,0.123 -2.648,0.063 -3.841,-0.129 -1.054,-0.17 -2.181,-0.21 -3.192,-0.559 -3.083,-1.063 -6.94,0.548 -9.233,2.692 -0.812,0.759 -1.359,1.674 -2.058,2.522 -0.57,0.691 -1.187,1.42 -1.581,2.237 -0.27,0.552 -0.487,1.14 -0.657,1.751 -0.296,1.067 -0.776,2.183 -0.819,3.271 -1.566,0.376 -3.445,-0.135 -5.017,-0.376 -1.009,-0.153 -1.987,-0.243 -2.985,-0.429 -1.97,-0.368 -4.033,0.07 -5.784,-1.2 -1.25,-0.906 -3.104,-1.253 -4.553,-1.763 -2.3,-0.807 -4.395,-1.952 -5.815,-3.999 -3.63,-5.232 -2.323,-13.007 0.548,-18.271 1.134,-2.079 2.698,-3.825 4.606,-5.22 1.471,-1.075 2.186,-2.797 4.031,-3.269 1.43,-0.365 2.935,-0.369 4.38,-0.659 1.126,-0.226 2.213,-0.314 3.325,-0.456 1.299,-0.164 2.657,-0.169 3.954,-0.353 0.741,-0.104 1.492,0.023 2.235,-0.052 0.81,-0.08 1.604,-0.171 2.418,-0.243 1.541,-0.136 3.138,-0.012 4.686,-0.012 2.415,-0.001 4.82,0.12 7.208,0.132 2.371,0.012 4.713,0.475 7.081,0.506 1.052,0.013 2.047,-0.233 3.08,-0.226 1.249,0.007 2.5,-0.007 3.749,-0.022 C -2.881,-0.001 -1.375,0.157 0,0"
             style="fill:#ff7680;fill-opacity:1;fill-rule:nonzero;stroke:none"
             id="path56" />
        </g>
        <g
           id="g58"
           transform="translate(133.0842,218.3483)"
           style="display:inline">
          <path
             d="m 0,0 c -0.615,0.821 -1.284,1.603 -1.977,2.381 -3.822,4.313 -9.025,6.083 -14.247,8.069 -1.743,0.662 -3.779,0.73 -5.63,0.804 -2.451,0.097 -5.098,-0.347 -7.467,-0.946 -2.024,-0.51 -4.046,-1.555 -5.888,-2.525 -1.075,-0.566 -1.667,-1.425 -0.921,-2.6 0.598,-0.941 2.084,-0.794 2.982,-0.476 0.645,0.229 1.224,0.554 1.904,0.674 0.683,0.12 1.376,0.149 2.059,0.273 5.145,0.927 10.435,0.592 15.381,-1.107 1.399,-0.48 2.762,-1.077 4.053,-1.799 1.825,-1.022 3.311,-2.431 4.89,-3.768 0.544,-0.46 1.086,-0.922 1.619,-1.395 0.496,-0.441 0.765,-0.989 1.079,-1.584 0.715,-1.341 1.325,-2.736 1.877,-4.152 0.353,-0.907 0.749,-2.001 1.68,-2.466 1.058,-0.529 2.566,-0.248 3.687,-0.104 1.169,0.149 1.897,0.443 2.44,1.518 0.461,0.92 0.921,1.644 1.72,2.31 0.744,0.624 1.515,1.144 2.397,1.553 1.003,0.465 1.538,0.891 1.747,2.021 0.148,0.807 0.509,2.103 0.013,2.831 -0.715,1.045 -2.359,0.551 -3.301,0.176 C 8.241,-1.051 6.88,-2.084 5.762,-3.801 5.18,-4.692 4.909,-6.175 3.898,-6.732 3.126,-7.159 2.871,-5.932 2.705,-5.393 2.406,-4.427 2.115,-3.488 1.647,-2.585 1.171,-1.663 0.611,-0.813 0,0"
             style="fill:#008f4f;fill-opacity:1;fill-rule:nonzero;stroke:none"
             id="path60" />
        </g>
        <g
           id="g62"
           transform="translate(146.3201,141.9558)"
           style="display:inline">
          <path
             d="m 0,0 c 0.041,1.479 0.063,2.957 0.067,4.437 0.011,2.622 -0.029,5.243 -0.101,7.865 -0.014,0.534 -0.08,1.09 0.044,1.615 0.095,0.403 0.186,0.761 0.178,1.183 -0.027,1.279 -0.031,2.551 0.115,3.824 0.135,1.173 0.257,2.345 0.286,3.525 0.018,0.683 0.129,1.311 0.18,1.978 0.065,0.869 -0.108,1.772 -0.082,2.648 0.027,0.9 0.189,1.915 -0.085,2.79 -0.809,2.597 -4.768,-1.114 -5.727,-2.116 -1.113,-1.166 -2.097,-2.389 -3.284,-3.491 -1.078,-0.999 -2.063,-2.136 -2.368,-3.613 -0.139,-0.673 0.005,-1.304 -0.041,-1.961 -0.05,-0.734 -0.325,-1.533 -0.526,-2.238 -0.426,-1.493 -0.99,-2.944 -1.648,-4.35 -1.327,-2.832 -3.043,-5.462 -4.804,-8.038 -1.656,-2.426 -3.3,-4.86 -4.871,-7.342 -1.058,-1.672 -2.436,-2.981 -3.461,-4.65 -1.203,-1.956 -2.407,-3.931 -3.258,-6.074 -1.78,-4.48 -4.094,-8.554 -4.339,-13.498 -0.141,-2.863 -0.117,-5.747 0.802,-8.49 1.085,-3.252 3.177,-6.211 6.346,-7.703 2.993,-1.409 6.221,-0.743 9.248,0.188 1.504,0.463 3.243,1.379 4.857,1.168 1.414,-0.185 2.529,-1.624 2.97,-2.899 0.18,-0.52 0.126,-1.062 0.242,-1.594 0.199,-0.915 0.681,-1.8 1.03,-2.664 0.462,-1.145 1.09,-2.569 -0.165,-3.4 -1.293,-0.856 -3.362,-0.79 -4.833,-1.191 -2.754,-0.752 -5.669,-2.046 -7.733,-4.054 -2.128,-2.067 -4.398,-3.738 -5.644,-6.522 -1.216,-2.723 -2.479,-5.771 -2.497,-8.787 -0.016,-2.141 -0.151,-4.554 0.651,-6.584 0.469,-1.187 1.328,-3.219 2.471,-3.913 1.036,-0.628 2.528,-0.562 3.695,-0.738 2.537,-0.383 5.036,-1.199 4.968,-4.238 -0.045,-1.955 -1.125,-3.658 -2.563,-4.915 -1.434,-1.253 -3.391,-1.658 -4.752,-2.886 -2.594,-2.337 -4.646,-4.945 -4.458,-8.635 0.087,-1.7 0.337,-3.604 1.772,-4.742 2.254,-1.791 5.099,-1.552 7.778,-1.461 1.222,0.041 2.799,0.212 3.96,-0.27 1.13,-0.47 0.376,-1.464 -0.005,-2.246 -0.743,-1.524 -0.721,-3.245 0.204,-4.722 0.445,-0.711 0.985,-1.351 1.675,-1.832 0.791,-0.551 1.758,-0.524 2.698,-0.582 2.17,-0.131 4.345,-10e-4 6.518,-0.077 1.653,-0.057 4.694,-0.668 4.987,1.616 0.312,2.436 0.06,5.044 0.066,7.496 0.007,3.188 -0.519,6.343 -0.482,9.531 0.051,4.591 0.319,9.134 0.18,13.704 -0.044,1.409 -0.081,2.817 -0.11,4.225 -0.094,4.288 -0.142,8.58 -0.129,12.868 0.029,10.475 0.117,20.932 -0.352,31.392 C -0.935,-26.98 -0.366,-13.47 0,0"
             style="fill:#ff7680;fill-opacity:1;fill-rule:nonzero;stroke:none"
             id="path64" />
        </g>
        <g
           id="g66"
           transform="translate(135.9634,164.5094)"
           style="display:inline">
          <path
             d="M 0,0 C 0.214,0.154 0.498,0.212 0.715,0.382 0.936,0.557 1.03,0.746 1.2,0.977 1.646,1.58 1.997,2.201 2.419,2.821 c 0.828,1.21 2.096,2.264 3.198,3.205 1.068,0.91 2.406,1.555 3.511,2.416 1.099,0.856 1.602,2.477 1.184,3.806 -0.47,1.496 -0.576,3.03 -0.27,4.598 0.069,0.346 0.166,0.654 0.343,0.957 0.172,0.293 0.163,0.613 0.175,0.947 0.007,0.201 0.025,0.406 -0.1,0.586 C 10.256,19.629 9.851,19.79 9.547,19.937 9.081,20.163 8.605,20.381 8.161,20.648 7.693,20.93 7.542,21.417 7.137,21.744 6.71,22.09 6.543,22.733 6.29,23.205 5.994,23.763 5.684,24.33 5.188,24.736 4.531,25.275 3.851,25.785 3.198,26.331 2.453,26.95 1.495,27.814 0.44,27.586 c -0.924,-0.197 -1.763,-0.942 -2.58,-1.39 -0.898,-0.491 -1.711,-0.998 -2.463,-1.702 -0.722,-0.675 -1.473,-1.22 -2.287,-1.777 -0.482,-0.33 -1.077,-1.016 -0.965,-1.66 0.049,-0.289 0.349,-0.559 0.497,-0.802 0.195,-0.315 0.405,-0.623 0.573,-0.951 1.511,-2.934 2.518,-6.06 3.759,-9.115 0.275,-0.68 0.555,-1.355 0.835,-2.034 C -1.594,6.707 -1.15,5.164 -0.986,3.599 -0.916,2.931 -1.13,0.06 -0.114,-0.103 -0.081,-0.063 -0.041,-0.031 0,0"
             style="fill:#008f4f;fill-opacity:1;fill-rule:nonzero;stroke:none"
             id="path68" />
        </g>
        <g
           id="g70"
           transform="translate(104.4928,205.2955)"
           style="display:inline">
          <path
             d="m 0,0 c 0.098,2.119 -2.959,3.028 -4.549,3.338 -3.09,0.603 -5.647,0.783 -8.77,-0.038 -0.142,-0.037 -6.156,-1.748 -9.014,-2.685 -3.612,-1.182 -6.945,-2.813 -10.407,-4.314 -5.699,-2.473 -12.329,-5.923 -15.128,-11.872 -3.443,-7.313 3.61,-10.984 9.502,-12.681 -0.769,0.223 -3.017,-0.832 -3.834,-1.045 -1.389,-0.362 -2.782,-0.709 -4.167,-1.094 -2.519,-0.705 -5.073,-1.447 -7.362,-2.733 -4.15,-2.33 -8.337,-4.115 -12.348,-6.809 -4.138,-2.778 -9.779,-5.555 -12.346,-9.989 -2.84,-4.908 -3.999,-9.83 -2.409,-15.268 0.662,-2.267 1.642,-3.824 3.63,-5.143 1.011,-0.669 2.108,-1.229 3.245,-1.65 1.001,-0.37 2.855,-0.403 3.677,-1.075 3.038,-2.493 -3.767,-6.326 -5.338,-8.057 -2.047,-2.257 -3.144,-5.176 -2.635,-8.266 0.431,-2.631 2.698,-5.187 5.006,-6.442 2.693,-1.466 9.957,-0.874 4.516,-5.036 -1.707,-1.307 -3.788,-2.212 -5.098,-3.988 -1.366,-1.851 -1.756,-4.536 -1.924,-6.774 -0.207,-2.712 0.631,-5.089 3.351,-6.107 1.854,-0.696 3.884,-0.288 5.743,-1.054 -2.736,-2.733 -5.505,-5.761 -7.251,-9.242 -2.089,-4.171 -0.476,-10.759 4.354,-12.333 5.298,-1.728 10.103,1.829 14.001,4.824 1.593,1.223 4.329,3.608 6.39,4.002 1.793,0.341 1.725,-2.921 2.439,-4.262 0.9,-1.689 2.846,-3.033 4.73,-3.377 2.125,-0.386 4.473,0.702 6.14,1.918 2.021,1.476 3.774,3.234 5.312,5.205 1.454,1.864 2.327,4.377 3.311,6.545 0.952,2.104 1.089,4.493 1.578,6.727 0.217,0.989 0.785,4.87 1.363,5.397 1.393,1.271 2.781,-1.594 3.426,-2.467 2.97,-4.029 8.798,-3.473 12.548,-0.585 3.334,2.566 5.567,7.286 6.394,11.325 1.624,7.95 2.154,15.891 2.157,23.993 0.001,1.184 -0.023,4.151 1.287,4.72 1.544,0.668 3.546,-1.695 4.566,-2.494 2.199,-1.723 5.24,-2.631 8.008,-2.598 2.429,0.028 4.682,-0.32 6.831,0.952 4.899,2.902 8.697,8.039 10.068,12.579 1.724,5.701 -0.175,29.624 -1.752,35 -1.904,6.491 -4.75,12.38 -7.604,18.486 -2.207,4.722 -5.642,10.531 -10.576,12.794 -1.801,0.826 -3.324,1.337 -5.286,1.664"
             style="fill:none;stroke:#191a21;stroke-linecap:round;stroke-linejoin:round;stroke-miterlimit:10;stroke-dasharray:none;stroke-opacity:1"
             id="path72" />
        </g>
        <g
           id="g74"
           transform="translate(133.3074,208.761)"
           style="display:inline">
          <path
             d="m 0,0 c -1.102,2.427 -1.962,4.795 -3.784,6.843 -2.17,2.439 -4.929,4.873 -7.749,6.505 -4.962,2.876 -12.667,3.133 -18.364,2.81"
             style="fill:none;stroke:#191a21;stroke-linecap:round;stroke-linejoin:round;stroke-miterlimit:10;stroke-dasharray:none;stroke-opacity:1"
             id="path76" />
        </g>
        <g
           id="g78"
           transform="translate(97.440499,226.0203)"
           style="display:inline">
          <path
             d="m 0,0 c 4.623,2.679 12.614,3.02 17.598,1.887 7.16,-1.626 13.237,-4.573 17.825,-10.745 2.144,-2.884 2.881,-6.602 3.742,-10.019"
             style="fill:none;stroke:#191a21;stroke-linecap:round;stroke-linejoin:round;stroke-miterlimit:10;stroke-dasharray:none;stroke-opacity:1"
             id="path80" />
        </g>
        <g
           id="g82"
           transform="translate(137.3531,203.9068)"
           style="display:inline">
          <path
             d="M 0,0 C 0.397,0.567 3.416,0.992 4.231,0.91 5.007,0.831 7.468,0.656 8.984,-0.759"
             style="fill:none;stroke:#191a21;stroke-linecap:round;stroke-linejoin:round;stroke-miterlimit:10;stroke-dasharray:none;stroke-opacity:1"
             id="path84" />
        </g>
        <g
           id="g86"
           transform="translate(135.6529,206.6443)"
           style="display:inline">
          <path
             d="M 0,0 C 2.519,1.506 6.807,2.797 9.521,1.038"
             style="fill:none;stroke:#191a21;stroke-linecap:round;stroke-linejoin:round;stroke-miterlimit:10;stroke-dasharray:none;stroke-opacity:1"
             id="path88" />
        </g>
        <g
           id="g90"
           transform="translate(136.5445,209.3004)"
           style="display:inline">
          <path
             d="m 0,0 c 0.62,2.216 2.559,4.217 4.028,5.92 1.214,1.406 3.978,3.322 5.95,2.979"
             style="fill:none;stroke:#191a21;stroke-linecap:round;stroke-linejoin:round;stroke-miterlimit:10;stroke-dasharray:none;stroke-opacity:1"
             id="path92" />
        </g>
        <g
           id="g94"
           transform="translate(140.0506,208.4912)"
           style="display:inline">
          <path
             d="M 0,0 C 0.108,1.168 1.316,2.251 2.159,3.025 3.088,3.88 4.555,5.612 5.932,5.664"
             style="fill:none;stroke:#191a21;stroke-linecap:round;stroke-linejoin:round;stroke-miterlimit:10;stroke-dasharray:none;stroke-opacity:1"
             id="path96" />
        </g>
        <g
           id="g98"
           transform="translate(56.4491,190.6923)"
           style="display:inline">
          <path
             d="m 0,0 c -7.213,1.813 -15.67,4.54 -15.444,13.489 0.101,3.989 1.527,8.277 4.067,11.379 2.598,3.171 6.459,4.635 10.303,5.686 3.58,0.977 7.405,1.852 11.138,1.663 2.723,-0.136 5.415,-1.036 8.126,-0.286 3.08,0.852 5.06,3.331 6.278,6.159 0.947,2.196 2.77,5.235 6.921,5.357 3.196,0.095 8.834,-5.456 9.37,-7.821"
             style="fill:none;stroke:#191a21;stroke-linecap:round;stroke-linejoin:round;stroke-miterlimit:10;stroke-dasharray:none;stroke-opacity:1"
             id="path100" />
        </g>
        <g
           id="g102"
           transform="translate(100.5388,224.3695)"
           style="display:inline">
          <path
             d="m 0,0 c 2.686,0.854 8.181,0.733 9.892,-0.733 1.122,-0.961 4.151,-4.762 1.336,-8.896 2.082,-0.263 4.209,-1.491 3.792,-2.582"
             style="fill:none;stroke:#191a21;stroke-linecap:round;stroke-linejoin:round;stroke-miterlimit:10;stroke-dasharray:none;stroke-opacity:1"
             id="path104" />
        </g>
        <g
           id="g106"
           transform="translate(132.6834,203.7549)"
           style="display:inline">
          <path
             d="M 0,0 C -1.465,2.427 -6.574,3.973 -10.415,4.247 -16.786,4.703 -21.909,1.767 -25.264,0.421"
             style="fill:none;stroke:#191a21;stroke-linecap:round;stroke-linejoin:round;stroke-miterlimit:10;stroke-dasharray:none;stroke-opacity:1"
             id="path108" />
        </g>
        <g
           id="g110"
           transform="translate(35.4352,94.626797)"
           style="display:inline">
          <path
             d="m 0,0 c 1.968,0.05 8.93,3.107 11.44,4.65 1.728,1.062 9.869,6.113 12.046,6.889"
             style="fill:none;stroke:#191a21;stroke-linecap:round;stroke-linejoin:round;stroke-miterlimit:10;stroke-dasharray:none;stroke-opacity:1"
             id="path112" />
        </g>
        <g
           id="g114"
           transform="translate(35.1447,119.7671)"
           style="display:inline">
          <path
             d="m 0,0 c 2.201,0.031 12.701,3.337 16.638,5.076 6.272,2.771 14.191,6.426 17.311,8.609"
             style="fill:none;stroke:#191a21;stroke-linecap:round;stroke-linejoin:round;stroke-miterlimit:10;stroke-dasharray:none;stroke-opacity:1"
             id="path116" />
        </g>
        <g
           id="g118"
           transform="translate(56.9885,182.6017)"
           style="display:inline">
          <path
             d="m 0,0 c -1.175,0.179 -3.048,-1.01 -4.047,-1.502 -1.829,-0.906 -3.069,-1.323 -4.202,-3.11 -0.687,-1.086 -3.356,-5.825 -1.729,-6.984"
             style="fill:none;stroke:#191a21;stroke-linecap:round;stroke-linejoin:round;stroke-miterlimit:10;stroke-dasharray:none;stroke-opacity:1"
             id="path120" />
        </g>
        <g
           id="g122"
           transform="translate(114.7006,123.5422)"
           style="display:inline">
          <path
             d="m 0,0 c -1.273,-2.859 -2.091,-5.409 -2.378,-8.592 -0.283,-3.133 -0.567,-7.13 0.772,-10.035 2.308,-5.013 6.392,-7.813 11.928,-6.961 1.879,0.291 3.547,0.695 5.33,1.365 1.335,0.502 3.313,1.744 4.739,0.792 1.296,-0.863 1.609,-3.802 1.927,-5.165 0.55,-2.329 1.186,-4.846 2.382,-6.936 1.377,-2.402 3.821,-3.877 6.507,-4.379"
             style="fill:none;stroke:#191a21;stroke-linecap:round;stroke-linejoin:round;stroke-miterlimit:10;stroke-dasharray:none;stroke-opacity:1"
             id="path124" />
        </g>
        <g
           id="g126"
           transform="translate(62.1132,65.2927)"
           style="display:inline">
          <path
             d="m 0,0 c -0.173,0.045 -0.339,0.031 -0.5,-0.043 0.019,-1.821 -0.577,-3.723 -0.576,-5.627 0.002,-2.819 -0.007,-5.444 0.938,-8.134 1.558,-4.436 5.208,-6.713 9.692,-7.469 4.071,-0.683 7.84,0.757 11.917,0.753 0.938,-0.003 2.263,0.215 3.042,-0.472 0.834,-0.736 0.953,-2.132 1.116,-3.132 0.35,-2.132 0.266,-4.33 0.498,-6.462 0.401,-3.69 0.834,-8.796 5.155,-10.135"
             style="fill:none;stroke:#191a21;stroke-linecap:round;stroke-linejoin:round;stroke-miterlimit:10;stroke-dasharray:none;stroke-opacity:1"
             id="path128" />
        </g>
        <g
           id="g130"
           transform="translate(138.4321,90.103202)"
           style="display:inline">
          <path
             d="m 0,0 c -6.08,-1.547 -12.822,-4.966 -17.181,-9.54 -3.007,-3.158 -4.536,-7.214 -4.712,-11.544 -0.119,-2.899 -0.249,-7.135 1.688,-9.534 2.243,-2.779 6.149,-1.757 8.904,-3.488 2.939,-1.849 1.257,-5.84 -0.701,-7.774 -2.108,-2.079 -5.161,-2.711 -7.158,-4.962 -1.806,-2.034 -2.952,-4.897 -2.657,-7.638 0.737,-6.851 9.012,-5.362 13.968,-5.983 -0.294,-0.676 -2.264,-4.125 -0.107,-5.069"
             style="fill:none;stroke:#191a21;stroke-linecap:round;stroke-linejoin:round;stroke-miterlimit:10;stroke-dasharray:none;stroke-opacity:1"
             id="path132" />
        </g>
        <g
           id="g134"
           transform="translate(132.7693,203.9068)"
           style="display:inline">
          <path
             d="m 0,0 c -1.737,-1.276 -2.453,-3.705 -2.091,-5.854 0.163,-0.948 0.854,-1.987 1.764,-2.471 0.654,-0.347 1.394,-0.339 2.107,-0.256 0.694,0.08 1.522,0.328 2.218,0.174 0.105,-0.536 0.152,-1.077 0.306,-1.609 0.122,-0.416 0.322,-0.83 0.527,-1.211 0.425,-0.788 0.862,-1.584 1.526,-2.187 0.39,-0.354 0.78,-0.625 1.222,-0.912 0.394,-0.259 0.693,-0.571 1.005,-0.923 0.774,-0.866 1.264,-2.008 2.157,-2.764 0.317,-0.267 0.565,-0.598 0.891,-0.854 0.21,-0.166 0.472,-0.287 0.716,-0.39 0.444,-0.186 0.892,-0.416 1.371,-0.261"
             style="fill:none;stroke:#191a21;stroke-linecap:round;stroke-linejoin:round;stroke-miterlimit:10;stroke-dasharray:none;stroke-opacity:1"
             id="path136" />
        </g>
        <g
           id="g138"
           transform="translate(138.9715,204.1758)"
           style="display:inline">
          <path
             d="m 0,0 c 0.891,-0.167 1.877,-1.12 2.274,-1.879 0.824,-1.579 -0.014,-3.058 0.14,-4.695 0.175,-1.843 2.964,-3.533 4.254,-4.765"
             style="fill:none;stroke:#191a21;stroke-linecap:round;stroke-linejoin:round;stroke-miterlimit:10;stroke-dasharray:none;stroke-opacity:1"
             id="path140" />
        </g>
        <g
           id="g142"
           transform="translate(60.6292,57.067)"
           style="display:inline">
          <path
             d="m 0,0 c -10.396,-1.735 -25.681,-1.391 -25.957,-15.299 -0.141,-7.079 2.257,-13.039 7.874,-17.355"
             style="fill:none;stroke:#191a21;stroke-linecap:round;stroke-linejoin:round;stroke-miterlimit:10;stroke-dasharray:none;stroke-opacity:1"
             id="path144" />
        </g>
        <g
           id="g146"
           transform="translate(47.2801,38.0552)"
           style="display:inline">
          <path
             d="m 0,0 c -0.081,-0.273 3.669,-0.892 4.618,-1.008 2.662,-0.317 5.477,-0.503 8.16,-0.617 3.312,-0.141 6.278,0.429 9.435,0.826 3.218,0.406 6.194,0.913 9.337,1.605 1.196,0.262 8.11,3.18 8.497,2.43"
             style="fill:none;stroke:#191a21;stroke-linecap:round;stroke-linejoin:round;stroke-miterlimit:10;stroke-dasharray:none;stroke-opacity:1"
             id="path148" />
        </g>
        <g
           id="g150"
           transform="translate(132.6333,123.8127)"
           style="display:inline">
          <path
             d="m 0,0 c 0.314,1.534 1.76,3.296 2.617,4.631 1.303,2.026 2.861,3.824 4.335,5.735 1.799,2.333 3.76,4.691 5.429,6.989 -0.08,-0.122 -0.162,-0.243 -0.246,-0.365"
             style="fill:none;stroke:#191a21;stroke-linecap:round;stroke-linejoin:round;stroke-miterlimit:10;stroke-dasharray:none;stroke-opacity:1"
             id="path152" />
        </g>
        <g
           id="g154"
           transform="translate(128.9927,68.3938)"
           style="display:inline">
          <path
             d="M 0,0 C 2.309,0.277 14.656,3.939 17.097,3.328"
             style="fill:none;stroke:#191a21;stroke-linecap:round;stroke-linejoin:round;stroke-miterlimit:10;stroke-dasharray:none;stroke-opacity:1"
             id="path156" />
        </g>
        <g
           id="g158"
           transform="translate(131.0149,38.4588)"
           style="display:inline">
          <path
             d="m 0,0 c 3.023,1.678 5.982,3.908 8.79,5.856 1.198,0.832 4.387,3.496 5.773,3.448"
             style="fill:none;stroke:#191a21;stroke-linecap:round;stroke-linejoin:round;stroke-miterlimit:10;stroke-dasharray:none;stroke-opacity:1"
             id="path160" />
        </g>
        <g
           id="g162"
           transform="translate(103.9132,110.3285)"
           style="display:inline">
          <path
             d="M 0,0 C -1.048,-0.626 1.125,-7.178 1.479,-8.335 2.948,-13.151 3.457,-18.162 3.8,-23.159 4.651,-35.58 4.307,-48.01 4.305,-60.491 4.302,-65.003 4.03,-69.54 4.046,-74.08 v 0.459"
             style="fill:none;stroke:#191a21;stroke-linecap:round;stroke-linejoin:round;stroke-miterlimit:10;stroke-dasharray:none;stroke-opacity:1"
             id="path164" />
        </g>
        <g
           id="g166"
           transform="translate(78.563298,60.1681)"
           style="display:inline">
          <path
             d="m 0,0 c 4.086,3.403 8.65,7.563 10.314,9.906 2.823,3.977 5.4,7.48 8.607,11.168 2.531,2.91 8.684,13.152 9.07,14.934"
             style="fill:none;stroke:#191a21;stroke-linecap:round;stroke-linejoin:round;stroke-miterlimit:10;stroke-dasharray:none;stroke-opacity:1"
             id="path168" />
        </g>
        <g
           id="g170"
           transform="translate(98.790004,35.8972)"
           style="display:inline">
          <path
             d="m 0,0 c 1.48,2.84 3.486,5.346 4.788,8.346 0.624,1.446 1.223,2.901 2.02,4.267 0.793,1.355 1.652,2.692 2.663,5.016"
             style="fill:none;stroke:#191a21;stroke-linecap:round;stroke-linejoin:round;stroke-miterlimit:10;stroke-dasharray:none;stroke-opacity:1"
             id="path172" />
        </g>
        <g
           id="g174"
           transform="translate(108.4984,84.709397)"
           style="display:inline">
          <path
             d="m 0,0 c 1.188,-1.496 3.149,-2.698 4.722,-3.779 1.677,-1.155 3.729,-1.785 5.335,-2.922 0.158,-0.055 0.221,0.02 0.191,0.228"
             style="fill:none;stroke:#191a21;stroke-linecap:round;stroke-linejoin:round;stroke-miterlimit:10;stroke-dasharray:none;stroke-opacity:1"
             id="path176" />
        </g>
        <g
           id="g178"
           transform="translate(104.7233,120.3065)"
           style="display:inline">
          <path
             d="m 0,0 c 0.545,-1.675 2.348,-2.589 3.693,-3.554 1.118,-0.801 2.888,-2.35 4.398,-2.11"
             style="fill:none;stroke:#191a21;stroke-linecap:round;stroke-linejoin:round;stroke-miterlimit:10;stroke-dasharray:none;stroke-opacity:1"
             id="path180" />
        </g>
        <g
           id="g182"
           transform="translate(96.428801,221.7057)"
           style="display:inline">
          <path
             d="m 0,0 c -3.217,-0.999 -5.61,-4.518 -6.514,-5.884 -0.823,-1.242 -2.564,-5.495 -3.194,-7.87"
             style="fill:none;stroke:#191a21;stroke-linecap:round;stroke-linejoin:round;stroke-miterlimit:10;stroke-dasharray:none;stroke-opacity:1"
             id="path184" />
        </g>
        <g
           id="g186"
           transform="translate(53.3479,206.5356)"
           style="display:inline">
          <path
             d="M 0,0 C 7.071,-0.019 30.094,3.791 33.372,4.247"
             style="fill:none;stroke:#191a21;stroke-linecap:round;stroke-linejoin:round;stroke-miterlimit:10;stroke-dasharray:none;stroke-opacity:1"
             id="path188" />
        </g>
        <g
           id="g190"
           transform="translate(137.3531,192.5799)"
           style="display:inline">
          <path
             d="m 0,0 c -0.68,-0.062 -1.489,-0.576 -2.088,-0.851 -1.07,-0.491 -2.137,-1.023 -3.105,-1.713 -1.173,-0.837 -2.024,-1.926 -3.072,-2.862 0.166,0.074 0.312,0.175 0.444,0.301"
             style="fill:none;stroke:#191a21;stroke-linecap:round;stroke-linejoin:round;stroke-miterlimit:10;stroke-dasharray:none;stroke-opacity:1"
             id="path192" />
        </g>
        <g
           id="g194"
           transform="translate(37.5332,71.6897)"
           style="display:inline">
          <path
             d="m 0,0 c 6.54,6.207 16.358,19.815 19.289,26.288 1.014,2.242 2.194,7.987 3.107,10.252 1.644,4.078 3.363,8.142 4.833,12.295 3.378,9.538 6.94,19.058 9.937,28.712 4.238,13.654 10.415,26.996 18.247,38.713 2.57,3.845 5.41,7.431 8.148,11.186 0.752,1.031 1.556,1.921 2.399,2.881"
             style="fill:none;stroke:#191a21;stroke-linecap:round;stroke-linejoin:round;stroke-miterlimit:10;stroke-dasharray:none;stroke-opacity:1"
             id="path196" />
        </g>
        <g
           id="g198"
           transform="translate(104.6918,206.2816)"
           style="display:inline">
          <path
             d="m 0,0 c 2.028,2.238 4.845,3.586 7.63,4.622 1.398,0.519 2.955,1.034 4.429,1.253 1.584,0.234 2.9,0.117 4.466,-0.002 5.058,-0.384 9.753,-1.468 13.736,-4.708 0.041,-0.186 -0.032,-0.33 -0.22,-0.432"
             style="fill:none;stroke:#191a21;stroke-linecap:round;stroke-linejoin:round;stroke-miterlimit:10;stroke-dasharray:none;stroke-opacity:1"
             id="path200" />
        </g>
        <g
           id="g202"
           transform="translate(39.9703,144.4895)"
           style="display:inline">
          <path
             d="m 0,0 c 4.244,3.006 16.184,6.228 21.613,8.381 5.214,2.064 14.168,6.225 17.952,10.441"
             style="fill:none;stroke:#191a21;stroke-linecap:round;stroke-linejoin:round;stroke-miterlimit:10;stroke-dasharray:none;stroke-opacity:1"
             id="path204" />
        </g>
        <g
           id="g206"
           transform="translate(80.024501,164.0286)"
           style="display:inline">
          <path
             d="m 0,0 c -1.139,-0.604 -0.079,-8.006 0.275,-9.524 1.082,-4.61 3.415,-14.32 4.181,-18.487 1.283,-6.961 5.318,-21.287 5.312,-20.883"
             style="fill:none;stroke:#191a21;stroke-linecap:round;stroke-linejoin:round;stroke-miterlimit:10;stroke-dasharray:none;stroke-opacity:1"
             id="path208" />
        </g>
        <g
           id="g210"
           transform="translate(70.2546,190.8948)"
           style="display:inline">
          <path
             d="m 0,0 c 2.666,-0.274 15.152,2.066 18.296,2.904 2.467,0.66 4.855,1.51 7.23,2.332 1.72,0.595 3.538,1.908 5.248,2.091"
             style="fill:none;stroke:#191a21;stroke-linecap:round;stroke-linejoin:round;stroke-miterlimit:10;stroke-dasharray:none;stroke-opacity:1"
             id="path212" />
        </g>
        <g
           id="g214"
           transform="translate(101.5177,198.7098)"
           style="display:inline">
          <path
             d="m 0,0 c -0.04,-8.995 4.811,-17.37 7.768,-25.676 2.025,-5.688 5.025,-12.621 5.038,-18.736"
             style="fill:none;stroke:#191a21;stroke-linecap:round;stroke-linejoin:round;stroke-miterlimit:10;stroke-dasharray:none;stroke-opacity:1"
             id="path216" />
        </g>
        <g
           id="g218"
           transform="translate(60.4846,109.1821)"
           style="display:inline">
          <path
             d="m 0,0 c 0.794,-2.657 2.106,-6.955 2.5,-8.102 0.848,-2.461 1.618,-5.031 2.019,-7.632 0.411,-2.66 0.885,-7.622 0.909,-14.152"
             style="fill:none;stroke:#191a21;stroke-linecap:round;stroke-linejoin:round;stroke-miterlimit:10;stroke-dasharray:none;stroke-opacity:1"
             id="path220" />
        </g>
        <g
           id="g222"
           transform="translate(89.4266,214.0508)">
          <path
             d="M 0,0 10.517,-5.418"
             style="fill:none;stroke:#191a21;stroke-linecap:round;stroke-linejoin:round;stroke-miterlimit:10;stroke-dasharray:none;stroke-opacity:1"
             id="path224" />
        </g>
        <g
           id="g226">
          <g
             id="g228"
             clip-path="url(#clipPath232)">
            <g
               id="g234"
               transform="translate(135.7517,163.1942)">
              <path
                 d="M 0,0 C 3.844,5.303 9.544,8.883 10.472,11.004"
                 style="fill:none;stroke:#191a21;stroke-linecap:round;stroke-linejoin:round;stroke-miterlimit:10;stroke-dasharray:none;stroke-opacity:1"
                 id="path236" />
            </g>
            <g
               id="g238"
               transform="translate(146.4051,21.0951)">
              <path
                 d="M 0,0 H -128.518 V 213.301 H 0 Z"
                 style="fill:none;stroke:#191a21;stroke-linecap:round;stroke-linejoin:round;stroke-miterlimit:10;stroke-dasharray:none;stroke-opacity:1"
                 id="path240" />
            </g>
          </g>
        </g>
      </g>
    </g>
  </g>
</svg>
