<?xml version="1.0" encoding="UTF-8" standalone="no"?>
<!-- Created with Inkscape (http://www.inkscape.org/) -->

<svg
   version="1.1"
   id="svg18"
   width="286.99771"
   height="173.858"
   viewBox="0 0 286.99772 173.858"
   sodipodi:docname="scie-circulaire.svg"
   inkscape:version="1.2.2 (1:1.2.2+202212051552+b0a8486541)"
   xmlns:inkscape="http://www.inkscape.org/namespaces/inkscape"
   xmlns:sodipodi="http://sodipodi.sourceforge.net/DTD/sodipodi-0.dtd"
   xmlns="http://www.w3.org/2000/svg"
   xmlns:svg="http://www.w3.org/2000/svg">
  <defs
     id="defs22">
    <clipPath
       clipPathUnits="userSpaceOnUse"
       id="clipPath1662">
      <path
         d="M 17.008,20.027 H 147.402 V 235.276 H 17.008 Z"
         id="path1660" />
    </clipPath>
    <clipPath
       clipPathUnits="userSpaceOnUse"
       id="clipPath1698">
      <path
         d="M 17.008,20.027 H 147.402 V 235.276 H 17.008 Z"
         id="path1696" />
    </clipPath>
    <clipPath
       clipPathUnits="userSpaceOnUse"
       id="clipPath1726">
      <path
         d="M 17.008,20.027 H 147.402 V 235.276 H 17.008 Z"
         id="path1724" />
    </clipPath>
    <clipPath
       clipPathUnits="userSpaceOnUse"
       id="clipPath1750">
      <path
         d="M 17.008,20.027 H 147.402 V 235.276 H 17.008 Z"
         id="path1748" />
    </clipPath>
  </defs>
  <sodipodi:namedview
     id="namedview20"
     pagecolor="#ffffff"
     bordercolor="#666666"
     borderopacity="1.0"
     inkscape:showpageshadow="2"
     inkscape:pageopacity="1"
     inkscape:pagecheckerboard="0"
     inkscape:deskcolor="#d1d1d1"
     showgrid="false"
     inkscape:zoom="1.3090036"
     inkscape:cx="119.17462"
     inkscape:cy="108.86143"
     inkscape:window-width="1366"
     inkscape:window-height="704"
     inkscape:window-x="0"
     inkscape:window-y="0"
     inkscape:window-maximized="1"
     inkscape:current-layer="g9358" />
  <g
     id="g1648"
     inkscape:groupmode="layer"
     inkscape:label="Page 8"
     transform="matrix(1.3333333,0,0,-1.3333333,34.098999,257.15033)">
    <g
       id="g1656">
      <g
         id="g1658"
         clip-path="url(#clipPath1662)" />
    </g>
    <g
       id="g357"
       transform="rotate(90,82.1199,127.58115)">
      <g
         id="g9358">
        <path
           d="M 146.234,20.767 H 17.835 v 213.61 h 128.399 z"
           style="fill:#008f4f;fill-opacity:1;fill-rule:nonzero;stroke:none"
           id="path1650" />
        <g
           id="g1652"
           transform="translate(17.8353,234.3769)">
          <path
             d="m 0,0 -0.117,-71.503 13.505,4.52 8.048,-8.731 0.577,11.458 106.36,36.51 0.092,27.501 z"
             style="fill:#ffbc00;fill-opacity:1;fill-rule:nonzero;stroke:none"
             id="path1654" />
        </g>
        <g
           id="g1664"
           transform="translate(67.8316,126.2041)">
          <path
             d="m 0,0 52.802,-57.936 4.644,2.444 c 0,0 -0.336,4.646 -0.795,5.471 -0.458,0.825 -4.4,4.309 -4.491,4.675 -0.092,0.367 0.824,0.917 0.824,0.917 l 4.31,0.55 c 0,0 -0.551,5.408 -1.101,6.234 -0.55,0.824 -2.842,3.024 -3.483,3.941 -0.642,0.917 -0.276,2.933 -0.276,2.933 h 4.95 c 0,0 0.093,3.76 -0.641,4.86 -0.733,1.1 -2.383,4.767 -4.216,5.683 -1.834,0.917 -3.393,0.55 -3.76,1.1 -0.366,0.55 -0.274,2.2 0.459,2.567 0.734,0.367 5.592,0.183 5.592,0.183 0,0 -1.008,6.601 -2.567,8.251 -1.558,1.65 -4.767,1.557 -5.408,2.017 -0.642,0.457 -1.742,2.383 -0.459,2.841 1.283,0.459 4.033,0.275 4.033,0.275 0,0 -0.935,4.063 -2.016,5.684 -1.284,1.924 -2.384,3.117 -3.941,3.208 l -5.043,0.733 c 0,0 -0.458,1.376 1.376,2.109 1.833,0.734 2.291,1.008 2.291,1.008 0,0 -1.467,3.85 -4.034,4.493 -2.567,0.64 -7.883,0.64 -9.35,0.183 -1.467,-0.459 -1.741,0.457 -1.467,1.007 0.276,0.551 1.743,1.284 1.743,1.284 l -6.51,2.017 -5.683,-0.367 -1.834,-2.2 -5.041,1.192 c 0,0 -2.842,-0.642 -3.85,-1.559 C 6.049,14.881 5.865,13.324 5.865,13.324 l -2.933,0.55 c 0,0 -3.117,-2.567 -3.667,-3.576 -0.55,-1.008 -0.55,-4.4 -0.55,-4.4 l 0.367,-4.217 z"
             style="fill:#ff7630;fill-opacity:1;fill-rule:nonzero;stroke:none"
             id="path1666" />
        </g>
        <g
           id="g1668"
           transform="translate(68.2599,126.5305)">
          <path
             d="m 0,0 c -0.082,-0.054 -0.157,-0.107 -0.238,-0.163 3.645,6.65 8.519,11.256 16.419,11.856 7.209,0.545 13.711,-2.53 17.976,-8.207 11.454,-15.23 13.233,-43.034 13.004,-56.448"
             style="fill:none;stroke:#191a21;stroke-linecap:round;stroke-linejoin:round;stroke-miterlimit:10;stroke-dasharray:none;stroke-opacity:1"
             id="path1670" />
        </g>
        <g
           id="g1672"
           transform="translate(67.7228,126.7999)">
          <path
             d="M 0,0 C -0.129,-0.007 -0.219,-0.066 -0.276,-0.167 -0.895,0.88 -0.804,2.515 -0.943,3.677 -1.093,4.941 -1.455,7.03 -1.072,8.286 -0.554,9.993 1.674,12.394 3.39,13.149 2.182,12.303 1.383,9.623 1.964,8.225 2.838,6.134 4.846,7.439 5.428,8.893 c 0.605,1.519 0.314,3.477 1.073,4.831 0.793,1.417 3.144,2.929 4.708,3.113 -0.093,-1.584 -1.162,-3.17 0.097,-4.647 1.748,-2.053 3.857,-0.48 4.599,1.462 0.618,1.612 0.97,3.732 2.969,4.068 0.808,0.135 3.551,0.316 4.911,0.148 -0.558,-0.885 -1.959,-3.292 -1.976,-4.034 -0.068,-2.647 1.54,-3.551 4.404,-2.565 1.991,0.68 2.588,3.055 5.011,2.605 1.295,-0.242 2.194,-1.071 3.181,-1.847 0.741,-0.578 1.732,-1.241 2.529,-1.911 -0.948,-0.235 -2.932,-0.059 -3.842,-0.635 -1.129,-0.716 -0.909,-2.2 -0.504,-3.517 0.303,-0.982 1.365,-2.239 2.411,-2.309 1.342,-0.094 1.665,0.581 2.596,1.316 1.945,1.537 4.205,0.28 5.58,-1.449 1.431,-1.807 1.792,-4.758 2.571,-6.9 -1.464,0.772 -3.432,3.5 -5.057,1.54 -1.772,-2.141 -0.957,-5.232 1.34,-5.656 1.049,-0.193 2.451,0.649 3.475,0.539 1.283,-0.141 2.042,-1.331 2.451,-2.347 0.956,-2.376 1.822,-5.197 2.162,-7.753 -1.38,0.774 -3.199,3.652 -4.771,2.228 -1.681,-1.521 -1.69,-5.894 0.266,-6.427 1.843,-0.504 3.711,0.924 5.093,-0.933 0.849,-1.141 1.04,-3.167 1.342,-4.518 0.358,-1.593 0.601,-3.181 0.675,-4.811 -1.533,1.071 -2.962,3.696 -5.068,2.225 -1.339,-0.932 -1.252,-4.049 -0.1,-5.022 1.606,-1.348 3.066,0.128 4.354,-2.047 1.521,-2.573 1.114,-5.976 1.082,-8.812 -1.17,0.658 -2.96,3.697 -4.985,1.039 -0.527,-0.684 -0.536,-3.423 -0.116,-4.442 0.78,-1.898 2.971,-1.248 4.284,-2.545 1.435,-1.415 0.103,-7.499 0.103,-7.499 0,0 -1.172,4.017 -2.545,2.81"
             style="fill:none;stroke:#191a21;stroke-linecap:round;stroke-linejoin:round;stroke-miterlimit:10;stroke-dasharray:none;stroke-opacity:1"
             id="path1674" />
        </g>
        <g
           id="g1676"
           transform="translate(91.506996,144.6671)">
          <path
             d="M 0,0 6.467,-1.747 C 5.487,-1.908 4.626,-3.175 4.906,-4.142"
             style="fill:none;stroke:#191a21;stroke-linecap:round;stroke-linejoin:round;stroke-miterlimit:10;stroke-dasharray:none;stroke-opacity:1"
             id="path1678" />
        </g>
        <g
           id="g1680"
           transform="translate(118.189,123.2232)">
          <path
             d="m 0,0 c 0,0 -1.049,7.498 -4.535,8.61 -2.763,0.881 -5.756,0.789 -6.996,0.823 -0.322,0.96 0.885,1.877 1.67,2.172 0.912,0.343 1.838,0.736 2.797,0.848 -0.765,2.525 -2.543,4.051 -5.105,4.772 -1.692,0.476 -4.722,0.852 -7.13,0.402"
             style="fill:none;stroke:#191a21;stroke-linecap:round;stroke-linejoin:round;stroke-miterlimit:10;stroke-dasharray:none;stroke-opacity:1"
             id="path1682" />
        </g>
        <g
           id="g1684"
           transform="translate(31.0416,167.5161)">
          <path
             d="m 0,0 88.956,-99.336 c 0.672,0.194 5.072,2.26 5.072,2.26 0,0 -0.248,4.499 -0.483,5.492 -0.603,2.562 -3.392,3.86 -4.287,5.039 -0.315,0.417 0.414,0.656 0.414,0.656 l 4.475,0.816 c 0,0 -0.207,5.616 -2.403,7.952 -0.996,1.061 -2.734,1.969 -2.819,3.5 -0.066,1.109 0.478,1.389 0.478,1.389 0,0 3.646,0.166 4.678,0.215 0.397,3.824 -1.266,8.232 -4.801,10.382 -0.836,0.507 -1.657,0.475 -2.577,0.641 -1.175,0.214 -1.565,1.024 -1.279,2.187 0.142,0.576 1.374,1.035 1.374,1.035 0,0 4.044,-0.067 4.953,0.119 -0.355,2.381 -1.485,6.925 -3.389,8.648 -0.861,0.78 -1.693,0.959 -2.81,1.081 -1.197,0.136 -2.711,0.349 -2.943,1.748 -0.264,1.592 1.86,1.95 1.86,1.95"
             style="fill:none;stroke:#191a21;stroke-linecap:round;stroke-linejoin:round;stroke-miterlimit:10;stroke-dasharray:none;stroke-opacity:1"
             id="path1686" />
        </g>
        <g
           id="g1688"
           transform="translate(68.5034,137.6858)">
          <path
             d="M 0,0 -28.823,32.644"
             style="fill:none;stroke:#191a21;stroke-linecap:round;stroke-linejoin:round;stroke-miterlimit:10;stroke-dasharray:none;stroke-opacity:1"
             id="path1690" />
        </g>
        <g
           id="g1692">
          <g
             id="g1694"
             clip-path="url(#clipPath1698)">
            <g
               id="g1700"
               transform="translate(39.9809,170.4294)">
              <path
                 d="M 0,0 106.228,36.019"
                 style="fill:none;stroke:#191a21;stroke-linecap:round;stroke-linejoin:round;stroke-miterlimit:10;stroke-dasharray:none;stroke-opacity:1"
                 id="path1702" />
            </g>
            <g
               id="g1704"
               transform="translate(18.6874,163.2647)">
              <path
                 d="M 0,0 12.354,4.251"
                 style="fill:none;stroke:#191a21;stroke-linecap:round;stroke-linejoin:round;stroke-miterlimit:10;stroke-dasharray:none;stroke-opacity:1"
                 id="path1706" />
            </g>
          </g>
        </g>
        <g
           id="g1708"
           transform="translate(39.68,158.0424)">
          <path
             d="M 0,0 V 12.287"
             style="fill:none;stroke:#191a21;stroke-linecap:round;stroke-linejoin:round;stroke-miterlimit:10;stroke-dasharray:none;stroke-opacity:1"
             id="path1710" />
        </g>
        <g
           id="g1712"
           transform="translate(39.7173,165.3174)">
          <path
             d="M 0,0 26.378,-29.439"
             style="fill:none;stroke:#191a21;stroke-linecap:round;stroke-linejoin:round;stroke-miterlimit:10;stroke-dasharray:none;stroke-opacity:1"
             id="path1714" />
        </g>
        <g
           id="g1716"
           transform="translate(39.68,161.5903)">
          <path
             d="M 0,0 26.516,-29.53"
             style="fill:none;stroke:#191a21;stroke-linecap:round;stroke-linejoin:round;stroke-miterlimit:10;stroke-dasharray:none;stroke-opacity:1"
             id="path1718" />
        </g>
        <g
           id="g1720">
          <g
             id="g1722"
             clip-path="url(#clipPath1726)">
            <g
               id="g1728"
               transform="translate(78.931,143.6372)">
              <path
                 d="M 0,0 5.409,-1.264 C 3.268,-3.005 4.004,-2.471 3.604,-3.206 3.202,-3.943 4.34,-3.943 4.34,-3.943"
                 style="fill:none;stroke:#191a21;stroke-linecap:round;stroke-linejoin:round;stroke-miterlimit:10;stroke-dasharray:none;stroke-opacity:1"
                 id="path1730" />
            </g>
          </g>
        </g>
        <g
           id="g1732"
           transform="translate(71.1117,139.949)">
          <path
             d="M 0,0 2.718,-0.389"
             style="fill:none;stroke:#191a21;stroke-linecap:round;stroke-linejoin:round;stroke-miterlimit:10;stroke-dasharray:none;stroke-opacity:1"
             id="path1734" />
        </g>
        <g
           id="g1736"
           transform="translate(104.656,136.9166)">
          <path
             d="M 0,0 6.468,-1.241"
             style="fill:none;stroke:#191a21;stroke-linecap:round;stroke-linejoin:round;stroke-miterlimit:10;stroke-dasharray:none;stroke-opacity:1"
             id="path1738" />
        </g>
        <g
           id="g1740"
           transform="translate(113.4693,123.4224)">
          <path
             d="M 0,0 4.72,-0.199"
             style="fill:none;stroke:#191a21;stroke-linecap:round;stroke-linejoin:round;stroke-miterlimit:10;stroke-dasharray:none;stroke-opacity:1"
             id="path1742" />
        </g>
        <g
           id="g1744">
          <g
             id="g1746"
             clip-path="url(#clipPath1750)">
            <g
               id="g1752"
               transform="translate(146.5215,20.9053)">
              <path
                 d="M 0,0 H -128.634 V 213.49 H 0 Z"
                 style="fill:none;stroke:#191a21;stroke-linecap:round;stroke-linejoin:round;stroke-miterlimit:10;stroke-dasharray:none;stroke-opacity:1"
                 id="path1754" />
            </g>
          </g>
        </g>
      </g>
    </g>
  </g>
</svg>
