<?xml version="1.0" encoding="UTF-8" standalone="no"?>
<!-- Created with Inkscape (http://www.inkscape.org/) -->

<svg
   version="1.1"
   id="svg18"
   width="173.85866"
   height="286.996"
   viewBox="0 0 173.85866 286.99601"
   sodipodi:docname="emboiter-2--mobile.svg"
   inkscape:version="1.2.1 (0f2f062aeb, 2022-09-21, custom)"
   xmlns:inkscape="http://www.inkscape.org/namespaces/inkscape"
   xmlns:sodipodi="http://sodipodi.sourceforge.net/DTD/sodipodi-0.dtd"
   xmlns="http://www.w3.org/2000/svg"
   xmlns:svg="http://www.w3.org/2000/svg">
  <defs
     id="defs22">
    <clipPath
       clipPathUnits="userSpaceOnUse"
       id="clipPath3466">
      <path
         d="M 17.008,20.028 H 147.402 V 235.276 H 17.008 Z"
         id="path3464" />
    </clipPath>
    <clipPath
       clipPathUnits="userSpaceOnUse"
       id="clipPath3510">
      <path
         d="M 17.008,20.028 H 147.402 V 235.276 H 17.008 Z"
         id="path3508" />
    </clipPath>
    <clipPath
       clipPathUnits="userSpaceOnUse"
       id="clipPath3542">
      <path
         d="M 17.008,20.028 H 147.402 V 235.276 H 17.008 Z"
         id="path3540" />
    </clipPath>
  </defs>
  <sodipodi:namedview
     id="namedview20"
     pagecolor="#ffffff"
     bordercolor="#666666"
     borderopacity="1.0"
     inkscape:showpageshadow="2"
     inkscape:pageopacity="1"
     inkscape:pagecheckerboard="0"
     inkscape:deskcolor="#d1d1d1"
     showgrid="false"
     inkscape:zoom="0.58075049"
     inkscape:cx="296.1685"
     inkscape:cy="309.08282"
     inkscape:window-width="1366"
     inkscape:window-height="704"
     inkscape:window-x="0"
     inkscape:window-y="0"
     inkscape:window-maximized="1"
     inkscape:current-layer="g3456" />
  <g
     id="g3456"
     inkscape:groupmode="layer"
     inkscape:label="Page 15"
     transform="matrix(1.3333333,0,0,-1.3333333,-22.677333,313.69999)">
    <g
       id="g3460"
       transform="rotate(-90,-25.4145,192.8685)">
      <g
         id="g3462"
         clip-path="url(#clipPath3466)" />
    </g>
    <g
       id="g2562">
      <path
         d="M 146.533,20.833 H 17.861 v 213.661 h 128.672 z"
         style="fill:#ffc700;fill-opacity:1;fill-rule:nonzero;stroke:none"
         id="path3458" />
      <g
         id="g3468"
         transform="translate(55.1858,115.4873)">
        <path
           d="m 0,0 c -0.323,-0.204 -0.163,-0.642 -0.172,-1.034 -0.027,-1.072 -0.187,-2.128 -0.193,-3.205 -0.008,-1.544 0.182,-3.079 0.182,-4.644 -0.003,-2.549 -0.124,-5.13 0.212,-7.593 0.587,-0.133 1.447,0.164 2.079,0.161 1.029,-0.006 1.993,-0.192 3.008,-0.187 1.264,0.004 2.43,-0.276 3.692,-0.367 2.003,-0.145 4.187,-0.276 6.231,-0.552 2.024,-0.272 4.162,0.201 6.188,-0.033 2.53,-0.297 5.148,0.139 7.738,0.218 1.467,0.043 2.941,0.002 4.409,0.002 1.232,0 2.46,0.208 3.633,0.211 -0.17,3.665 -0.261,7.337 -0.396,11.002 -0.061,1.654 0.285,3.324 0.187,4.968 C 36.694,0.692 35.375,0.722 33.897,0.61 31.764,0.449 29.696,0.213 27.55,0.312 25.316,0.417 23.109,0.472 20.872,0.336 17.114,0.107 13.34,-0.232 9.578,0.154 5.993,0.524 2.806,1.316 -0.823,0.764 c 0.091,0.052 0.181,0.103 0.273,0.153"
           style="fill:#ffc700;fill-opacity:1;fill-rule:nonzero;stroke:none"
           id="path3470" />
      </g>
      <g
         id="g3472"
         transform="translate(55.309,98.3131)">
        <path
           d="m 0,0 c 0.26,-1.08 1.276,-2.029 2.008,-2.803 1.27,-1.343 2.419,-2.216 3.843,-3.369 1.506,-1.219 3.084,-2.351 4.4,-3.731 2.455,-2.58 4.946,-5.05 7.856,-7.12 -0.106,1.942 0.299,3.705 0.458,5.625 0.145,1.725 -0.019,3.438 0.19,5.153 0.157,1.262 0.137,2.563 0.301,3.816 0.06,0.459 0.261,0.704 0.263,1.197 0.001,0.507 -0.3,0.923 -0.292,1.446 C 16.25,-0.153 13.061,-0.001 10.116,0 8.77,0.001 7.329,-0.125 5.99,0.015 4.758,0.142 3.296,0.092 2.048,0.282 2.111,0.428 2.162,0.579 2.2,0.733"
           style="fill:#ffc700;fill-opacity:1;fill-rule:nonzero;stroke:none"
           id="path3474" />
      </g>
      <g
         id="g3476"
         transform="translate(87.3325,136.2036)">
        <path
           d="m 0,0 c -0.45,-0.972 -0.323,-2.395 -0.488,-3.453 -0.169,-1.076 -0.204,-2.055 -0.25,-3.14 -0.075,-1.71 -0.959,-3.871 -0.491,-5.6 0.221,-0.817 1.23,-1.556 1.814,-2.291 0.539,-0.675 1.062,-1.377 1.639,-2.043 1.114,-1.29 2.534,-2.687 2.874,-4.448 -2.357,-1.28 2.784,-6.327 3.72,-7.316 2.354,-2.487 4.292,-5.889 5.618,-9.054 -0.191,1.763 0.208,3.806 0.383,5.565 0.173,1.763 0.334,3.529 0.538,5.289 0.161,1.395 0.125,2.802 0.276,4.183 0.049,0.458 0.425,1.09 0.28,1.536 -0.116,0.353 -0.967,0.933 -1.246,1.214 -3.341,3.387 -5.274,8.034 -8.348,11.67 -1.944,2.297 -3.604,4.922 -5.341,7.4"
           style="fill:#ffc700;fill-opacity:1;fill-rule:nonzero;stroke:none"
           id="path3478" />
      </g>
      <g
         id="g3480"
         transform="translate(106.5521,136.97)">
        <path
           d="m 0,0 h -4.034 -15.584 l -0.183,-13.934 -27.997,34.083 0.007,0.139 -40.337,49.138 v -94.362 l 35.082,-47.816 v -1.32 h 38.745 v 13.715 l 10.267,-13.347 h 43.82 V 0 Z"
           style="fill:#c14d6e;fill-opacity:1;fill-rule:nonzero;stroke:none"
           id="path3482" />
      </g>
      <g
         id="g3484"
         transform="translate(18.0831,111.5153)">
        <path
           d="m 0,0 36.1,-48.568 v 17.989 L 21.687,-13.202 V 4.309 L 36.1,-13.202 V 4.443 L -0.092,48.728"
           style="fill:none;stroke:#191a21;stroke-width:1.76;stroke-linecap:round;stroke-linejoin:round;stroke-miterlimit:10;stroke-dasharray:none;stroke-opacity:1"
           id="path3486" />
      </g>
      <g
         id="g3488"
         transform="translate(54.1832,115.9586)">
        <path
           d="M 0,0 H 38.259"
           style="fill:none;stroke:#191a21;stroke-width:1.76;stroke-linecap:round;stroke-linejoin:round;stroke-miterlimit:10;stroke-dasharray:none;stroke-opacity:1"
           id="path3490" />
      </g>
      <g
         id="g3492"
         transform="translate(54.1832,80.937)">
        <path
           d="M 0,0 38.19,-0.138 V -18.12 H 0"
           style="fill:none;stroke:#191a21;stroke-width:1.76;stroke-linecap:round;stroke-linejoin:round;stroke-miterlimit:10;stroke-dasharray:none;stroke-opacity:1"
           id="path3494" />
      </g>
      <g
         id="g3496"
         transform="translate(73.7164,98.177)">
        <path
           d="m 0,0 -0.029,-17.265 -18.624,16.79 z"
           style="fill:none;stroke:#191a21;stroke-width:1.76;stroke-linecap:round;stroke-linejoin:round;stroke-miterlimit:10;stroke-dasharray:none;stroke-opacity:1"
           id="path3498" />
      </g>
      <g
         id="g3500"
         transform="translate(39.7708,98.3131)">
        <path
           d="M 0,0 H 14.412 L 52.671,-0.067 V 17.645"
           style="fill:none;stroke:#191a21;stroke-width:1.76;stroke-linecap:round;stroke-linejoin:round;stroke-miterlimit:10;stroke-dasharray:none;stroke-opacity:1"
           id="path3502" />
      </g>
      <g
         id="g3504">
        <g
           id="g3506"
           clip-path="url(#clipPath3510)">
          <g
             id="g3512"
             transform="translate(89.1402,80.7996)">
            <path
               d="M 0,0 H 13.537 V -17.577 H 56.779"
               style="fill:none;stroke:#191a21;stroke-width:1.76;stroke-linecap:round;stroke-linejoin:round;stroke-miterlimit:10;stroke-dasharray:none;stroke-opacity:1"
               id="path3514" />
          </g>
          <g
             id="g3516"
             transform="translate(92.4418,98.2458)">
            <path
               d="M 0,0 H 10.236 V 17.41 H 53.478"
               style="fill:none;stroke:#191a21;stroke-width:1.76;stroke-linecap:round;stroke-linejoin:round;stroke-miterlimit:10;stroke-dasharray:none;stroke-opacity:1"
               id="path3518" />
          </g>
          <g
             id="g3520"
             transform="translate(102.6775,115.6563)">
            <path
               d="M 0,0 C 0,0 -15.198,21.146 -15.759,21.453 L 42.974,21.049"
               style="fill:none;stroke:#191a21;stroke-width:1.76;stroke-linecap:round;stroke-linejoin:round;stroke-miterlimit:10;stroke-dasharray:none;stroke-opacity:1"
               id="path3522" />
          </g>
        </g>
      </g>
      <g
         id="g3524"
         transform="translate(86.9186,137.1089)">
        <path
           d="M 0,0 V -14.197"
           style="fill:none;stroke:#191a21;stroke-width:1.76;stroke-linecap:round;stroke-linejoin:round;stroke-miterlimit:10;stroke-dasharray:none;stroke-opacity:1"
           id="path3526" />
      </g>
      <g
         id="g3528"
         transform="translate(92.4418,112.9463)">
        <path
           d="M 0,0 10.17,-13.758"
           style="fill:none;stroke:#191a21;stroke-width:1.76;stroke-linecap:round;stroke-linejoin:round;stroke-miterlimit:10;stroke-dasharray:none;stroke-opacity:1"
           id="path3530" />
      </g>
      <g
         id="g3532"
         transform="translate(102.6775,63.2215)">
        <path
           d="M 0,0 -10.101,13.133"
           style="fill:none;stroke:#191a21;stroke-width:1.76;stroke-linecap:round;stroke-linejoin:round;stroke-miterlimit:10;stroke-dasharray:none;stroke-opacity:1"
           id="path3534" />
      </g>
      <g
         id="g3536">
        <g
           id="g3538"
           clip-path="url(#clipPath3542)">
          <g
             id="g3544"
             transform="translate(18.182,207.0086)">
            <path
               d="M 0,0 74.26,-91.05"
               style="fill:none;stroke:#191a21;stroke-width:1.76;stroke-linecap:round;stroke-linejoin:round;stroke-miterlimit:10;stroke-dasharray:none;stroke-opacity:1"
               id="path3546" />
          </g>
          <g
             id="g3548"
             transform="translate(57.9218,115.6119)">
            <path
               d="M 0,0 C 0.001,-5.201 0.629,-11.945 0.367,-17.143"
               style="fill:none;stroke:#191a21;stroke-width:1.76;stroke-linecap:round;stroke-linejoin:round;stroke-miterlimit:10;stroke-dasharray:none;stroke-opacity:1"
               id="path3550" />
          </g>
          <g
             id="g3552"
             transform="translate(62.1844,115.9471)">
            <path
               d="m 0,0 c 0,-3.261 0.227,-6.505 0.243,-9.773 0.009,-1.7 0.235,-3.385 0.247,-5.085 0.006,-0.923 -0.098,-1.847 0.236,-2.655"
               style="fill:none;stroke:#191a21;stroke-width:1.76;stroke-linecap:round;stroke-linejoin:round;stroke-miterlimit:10;stroke-dasharray:none;stroke-opacity:1"
               id="path3554" />
          </g>
          <g
             id="g3556"
             transform="translate(68.0514,115.9471)">
            <path
               d="m 0,0 c -0.453,-0.948 -0.245,-2.122 -0.245,-3.152 0,-1.879 -0.001,-3.755 -0.001,-5.631 0.001,-1.719 0.069,-3.454 0.008,-5.17 -0.016,-0.436 0.009,-2.058 0.009,-3.525"
               style="fill:none;stroke:#191a21;stroke-width:1.76;stroke-linecap:round;stroke-linejoin:round;stroke-miterlimit:10;stroke-dasharray:none;stroke-opacity:1"
               id="path3558" />
          </g>
          <g
             id="g3560"
             transform="translate(74.881,115.9327)">
            <path
               d="m 0,0 c -0.153,-0.503 -0.198,-2.251 -0.219,-2.781 -0.088,-2.162 -0.09,-4.454 -0.31,-6.605 -0.237,-2.292 -0.067,-4.96 -0.342,-8.26"
               style="fill:none;stroke:#191a21;stroke-width:1.76;stroke-linecap:round;stroke-linejoin:round;stroke-miterlimit:10;stroke-dasharray:none;stroke-opacity:1"
               id="path3562" />
          </g>
          <g
             id="g3564"
             transform="translate(79.6479,115.9327)">
            <path
               d="m 0,0 c -0.092,-1.329 -0.352,-3.896 -0.352,-4.893 0.003,-1.616 -0.045,-3.161 -0.189,-4.768 -0.189,-2.104 -0.147,-4.869 -0.285,-7.985"
               style="fill:none;stroke:#191a21;stroke-width:1.76;stroke-linecap:round;stroke-linejoin:round;stroke-miterlimit:10;stroke-dasharray:none;stroke-opacity:1"
               id="path3566" />
          </g>
          <g
             id="g3568"
             transform="translate(86.1408,115.6405)">
            <path
               d="m 0,0 c -0.276,-1.055 -0.062,-7.12 -0.232,-8.872 -0.157,-1.587 -0.308,-3.196 -0.482,-4.788 -0.115,-1.031 -0.141,-1.999 -0.187,-3.649"
               style="fill:none;stroke:#191a21;stroke-width:1.76;stroke-linecap:round;stroke-linejoin:round;stroke-miterlimit:10;stroke-dasharray:none;stroke-opacity:1"
               id="path3570" />
          </g>
          <g
             id="g3572"
             transform="translate(58.2425,80.2724)">
            <path
               d="m 0,0 c 0.164,-0.99 -0.295,-2.719 -0.207,-3.811 0.162,-1.986 0.236,-3.92 0.238,-5.919 0.001,-2.07 -0.169,-5.226 0.107,-7.275"
               style="fill:none;stroke:#191a21;stroke-width:1.76;stroke-linecap:round;stroke-linejoin:round;stroke-miterlimit:10;stroke-dasharray:none;stroke-opacity:1"
               id="path3574" />
          </g>
          <g
             id="g3576"
             transform="translate(63.8946,80.0118)">
            <path
               d="m 0,0 c -0.001,-2.442 -0.258,-5.018 0.021,-7.436 0.205,-1.809 0.391,-3.7 0.47,-5.536 0.034,-0.783 0.09,-2.398 0.09,-4.094"
               style="fill:none;stroke:#191a21;stroke-width:1.76;stroke-linecap:round;stroke-linejoin:round;stroke-miterlimit:10;stroke-dasharray:none;stroke-opacity:1"
               id="path3578" />
          </g>
          <g
             id="g3580"
             transform="translate(69.2732,80.7452)">
            <path
               d="m 0,0 c 0.021,-2.867 0.163,-5.77 0.428,-8.632 0.194,-2.077 0.367,-5.821 0.367,-9.122"
               style="fill:none;stroke:#191a21;stroke-width:1.76;stroke-linecap:round;stroke-linejoin:round;stroke-miterlimit:10;stroke-dasharray:none;stroke-opacity:1"
               id="path3582" />
          </g>
          <g
             id="g3584"
             transform="translate(75.2477,80.5474)">
            <path
               d="m 0,0 c 0.001,-2.888 -0.154,-6.776 -0.098,-9.659 0.026,-1.372 0.083,-2.662 0.221,-4.033 0.076,-0.753 0.153,-1.801 0.198,-3.68"
               style="fill:none;stroke:#191a21;stroke-width:1.76;stroke-linecap:round;stroke-linejoin:round;stroke-miterlimit:10;stroke-dasharray:none;stroke-opacity:1"
               id="path3586" />
          </g>
          <g
             id="g3588"
             transform="translate(81.9855,80.5002)">
            <path
               d="m 0,0 c -0.054,-3.363 -0.003,-6.685 0,-10.06 0.003,-1.605 -0.004,-3.208 -0.001,-4.813 C 0,-15.546 0,-16.042 0.138,-17.6"
               style="fill:none;stroke:#191a21;stroke-width:1.76;stroke-linecap:round;stroke-linejoin:round;stroke-miterlimit:10;stroke-dasharray:none;stroke-opacity:1"
               id="path3590" />
          </g>
          <g
             id="g3592"
             transform="translate(87.6234,80.7767)">
            <path
               d="m 0,0 c 0.367,-2.888 -0.264,-6.995 -0.26,-9.449 0.003,-1.888 0.261,-6.946 0.26,-8.29"
               style="fill:none;stroke:#191a21;stroke-width:1.76;stroke-linecap:round;stroke-linejoin:round;stroke-miterlimit:10;stroke-dasharray:none;stroke-opacity:1"
               id="path3594" />
          </g>
          <g
             id="g3596"
             transform="translate(44.0334,110.02)">
            <path
               d="M 0,0 C -0.006,-3.724 -0.185,-7.722 -0.183,-11.46"
               style="fill:none;stroke:#191a21;stroke-width:1.76;stroke-linecap:round;stroke-linejoin:round;stroke-miterlimit:10;stroke-dasharray:none;stroke-opacity:1"
               id="path3598" />
          </g>
          <g
             id="g3600"
             transform="translate(47.7462,105.8947)">
            <path
               d="m 0,0 c -0.092,-1.238 -0.229,-2.913 -0.229,-3.759 0,-0.945 -0.047,-2.337 0,-3.758"
               style="fill:none;stroke:#191a21;stroke-width:1.76;stroke-linecap:round;stroke-linejoin:round;stroke-miterlimit:10;stroke-dasharray:none;stroke-opacity:1"
               id="path3602" />
          </g>
          <g
             id="g3604"
             transform="translate(59.4343,97.736)">
            <path
               d="m 0,0 c 0.327,-1.327 0.276,-2.672 0.276,-4.048 v 0.014"
               style="fill:none;stroke:#191a21;stroke-width:1.76;stroke-linecap:round;stroke-linejoin:round;stroke-miterlimit:10;stroke-dasharray:none;stroke-opacity:1"
               id="path3606" />
          </g>
          <g
             id="g3608"
             transform="translate(62.9178,97.736)">
            <path
               d="m 0,0 c -0.009,0.029 -0.019,0.059 -0.028,0.088 -0.02,-0.685 0.266,-1.434 0.348,-2.131 0.098,-0.83 0.139,-1.649 0.139,-2.492 0,-1.042 -0.211,-1.666 -0.276,-2.678"
               style="fill:none;stroke:#191a21;stroke-width:1.76;stroke-linecap:round;stroke-linejoin:round;stroke-miterlimit:10;stroke-dasharray:none;stroke-opacity:1"
               id="path3610" />
          </g>
          <g
             id="g3612"
             transform="translate(66.7064,98.2229)">
            <path
               d="m 0,0 c 0.289,-0.754 0.977,-5.66 0.978,-6.54 0.002,-0.849 0.002,-4.452 0,-5.286"
               style="fill:none;stroke:#191a21;stroke-width:1.76;stroke-linecap:round;stroke-linejoin:round;stroke-miterlimit:10;stroke-dasharray:none;stroke-opacity:1"
               id="path3614" />
          </g>
          <g
             id="g3616"
             transform="translate(86.8742,127.068)">
            <path
               d="M 0,0 C 0.838,-0.572 1.858,-2.298 2.14,-3.239 2.507,-4.46 2.439,-5.996 2.445,-7.027"
               style="fill:none;stroke:#191a21;stroke-width:1.76;stroke-linecap:round;stroke-linejoin:round;stroke-miterlimit:10;stroke-dasharray:none;stroke-opacity:1"
               id="path3618" />
          </g>
          <g
             id="g3620"
             transform="translate(90.1443,132.8462)">
            <path
               d="m 0,0 c -0.012,0.069 0.01,0.097 0.065,0.089 0.252,-0.701 0.708,-1.425 1.031,-2.109 0.294,-0.623 0.62,-1.248 0.85,-1.906 0.426,-1.213 0.627,-2.432 0.902,-3.637 0.313,-1.361 0.405,-2.77 0.568,-4.164 0.175,-1.485 0.249,-2.986 0.251,-4.514 0,-0.993 0.11,-2.057 -0.005,-3.036 -0.086,-0.75 -0.18,-1.499 -0.178,-2.28 v 0.013"
               style="fill:none;stroke:#191a21;stroke-width:1.76;stroke-linecap:round;stroke-linejoin:round;stroke-miterlimit:10;stroke-dasharray:none;stroke-opacity:1"
               id="path3622" />
          </g>
          <g
             id="g3624"
             transform="translate(97.5697,122.7293)">
            <path
               d="m 0,0 c 0.733,-1.467 1.283,-6.025 1.283,-7.334 0,-2.37 -0.366,-9.751 -0.366,-10.248 v 0.013"
               style="fill:none;stroke:#191a21;stroke-width:1.76;stroke-linecap:round;stroke-linejoin:round;stroke-miterlimit:10;stroke-dasharray:none;stroke-opacity:1"
               id="path3626" />
          </g>
          <g
             id="g3628"
             transform="translate(92.7111,76.1931)">
            <path
               d="M 0,0 C -0.018,0.059 -0.012,0.114 0.016,0.167 1.011,0.433 2.887,3.115 2.794,4.491"
               style="fill:none;stroke:#191a21;stroke-width:1.76;stroke-linecap:round;stroke-linejoin:round;stroke-miterlimit:10;stroke-dasharray:none;stroke-opacity:1"
               id="path3630" />
          </g>
          <g
             id="g3632"
             transform="translate(96.378,71.6095)">
            <path
               d="M 0,0 C 0.182,0.336 0.726,0.617 1.043,0.86 1.484,1.195 1.905,1.619 2.282,2.024 2.96,2.757 3.488,3.664 3.943,4.541 4.405,5.428 4.939,6.278 5.286,7.209 5.515,7.818 5.877,8.482 5.867,9.167"
               style="fill:none;stroke:#191a21;stroke-width:1.76;stroke-linecap:round;stroke-linejoin:round;stroke-miterlimit:10;stroke-dasharray:none;stroke-opacity:1"
               id="path3634" />
          </g>
          <g
             id="g3636"
             transform="translate(99.4933,67.2995)">
            <path
               d="M 0,0 C 0.76,0.169 1.612,0.791 2.108,1.32 2.581,1.831 2.923,2.408 3.209,3.026"
               style="fill:none;stroke:#191a21;stroke-width:1.76;stroke-linecap:round;stroke-linejoin:round;stroke-miterlimit:10;stroke-dasharray:none;stroke-opacity:1"
               id="path3638" />
          </g>
          <g
             id="g3640"
             transform="translate(146.523,20.906)">
            <path
               d="M 0,0 H -128.635 V 213.489 H 0 Z"
               style="fill:none;stroke:#191a21;stroke-width:1.76;stroke-linecap:round;stroke-linejoin:round;stroke-miterlimit:10;stroke-dasharray:none;stroke-opacity:1"
               id="path3642" />
          </g>
        </g>
      </g>
    </g>
  </g>
</svg>
