<?xml version="1.0" encoding="UTF-8" standalone="no"?>
<!-- Created with Inkscape (http://www.inkscape.org/) -->

<svg
   version="1.1"
   id="svg18"
   width="173.85866"
   height="286.30798"
   viewBox="0 0 173.85866 286.30799"
   sodipodi:docname="mesure--mobile.svg"
   inkscape:version="1.2.1 (0f2f062aeb, 2022-09-21, custom)"
   xmlns:inkscape="http://www.inkscape.org/namespaces/inkscape"
   xmlns:sodipodi="http://sodipodi.sourceforge.net/DTD/sodipodi-0.dtd"
   xmlns="http://www.w3.org/2000/svg"
   xmlns:svg="http://www.w3.org/2000/svg">
  <defs
     id="defs22">
    <clipPath
       clipPathUnits="userSpaceOnUse"
       id="clipPath2810">
      <path
         d="M 17.008,20.544 H 147.402 V 235.275 H 17.008 Z"
         id="path2808" />
    </clipPath>
    <clipPath
       clipPathUnits="userSpaceOnUse"
       id="clipPath2846">
      <path
         d="M 17.008,20.544 H 147.402 V 235.275 H 17.008 Z"
         id="path2844" />
    </clipPath>
    <clipPath
       clipPathUnits="userSpaceOnUse"
       id="clipPath2894">
      <path
         d="M 17.008,20.544 H 147.402 V 235.275 H 17.008 Z"
         id="path2892" />
    </clipPath>
    <clipPath
       clipPathUnits="userSpaceOnUse"
       id="clipPath3162">
      <path
         d="M 17.008,20.544 H 147.402 V 235.275 H 17.008 Z"
         id="path3160" />
    </clipPath>
    <clipPath
       clipPathUnits="userSpaceOnUse"
       id="clipPath3182">
      <path
         d="M 17.008,20.544 H 147.402 V 235.275 H 17.008 Z"
         id="path3180" />
    </clipPath>
    <clipPath
       clipPathUnits="userSpaceOnUse"
       id="clipPath3202">
      <path
         d="M 17.008,20.544 H 147.402 V 235.275 H 17.008 Z"
         id="path3200" />
    </clipPath>
    <clipPath
       clipPathUnits="userSpaceOnUse"
       id="clipPath3218">
      <path
         d="M 17.008,20.544 H 147.402 V 235.275 H 17.008 Z"
         id="path3216" />
    </clipPath>
  </defs>
  <sodipodi:namedview
     id="namedview20"
     pagecolor="#ffffff"
     bordercolor="#666666"
     borderopacity="1.0"
     inkscape:showpageshadow="2"
     inkscape:pageopacity="1"
     inkscape:pagecheckerboard="0"
     inkscape:deskcolor="#d1d1d1"
     showgrid="false"
     inkscape:zoom="0.55390963"
     inkscape:cx="-28.885578"
     inkscape:cy="228.3766"
     inkscape:window-width="1366"
     inkscape:window-height="704"
     inkscape:window-x="0"
     inkscape:window-y="0"
     inkscape:window-maximized="1"
     inkscape:current-layer="g2800" />
  <g
     id="g2800"
     inkscape:groupmode="layer"
     inkscape:label="Page 13"
     transform="matrix(1.3333333,0,0,-1.3333333,-22.677333,313.69999)">
    <g
       id="g2804"
       transform="rotate(-90,-25.36083,193.41923)" />
    <g
       id="g2003">
      <path
         d="M 145.11,120.894 H 17.809 V 21.395 H 145.11 Z"
         style="fill:#ffc700;fill-opacity:1;fill-rule:nonzero;stroke:none"
         id="path2802" />
      <g
         id="g2806"
         clip-path="url(#clipPath2810)">
        <g
           id="g2812"
           transform="translate(145.537,120.9034)">
          <path
             d="m 0,0 c 0.035,-1.411 0.06,-2.82 0.06,-4.232 0,-2.26 -0.24,-4.72 0.007,-6.963 0.555,-5.039 1.007,-11.083 0.296,-16.223 -2.552,0.689 -5.893,0.351 -8.712,0.34 -1.551,-0.008 -2.681,0.37 -4.213,0.364 -0.712,-0.002 -1.492,0.083 -2.199,0.003 -0.701,-0.079 -1.229,-0.543 -1.943,-0.305 -1.4,2.475 -1.55,6.37 -2.273,9.067 -0.869,3.241 -1.843,5.768 -4.467,7.973 -0.897,0.752 -1.64,1.7 -2.464,2.521 -0.787,0.781 -2.205,1.639 -2.825,2.449 -1.003,1.316 0.063,3.208 -0.738,4.731 -1.296,2.465 -4.985,2.934 -7.353,2.743 -3.421,-0.273 -6.638,0.072 -10.04,0.4 -11.35,1.093 -22.913,1.443 -34.309,1.994 -5.276,0.255 -10.555,0.66 -15.827,0.981 -2.163,-1.889 -4.283,-3.85 -6.504,-5.67 -1.904,-1.557 -2.677,-2.488 -0.42,-4.077 0.19,-0.135 3.902,-2.667 3.358,-2.985 -3.041,-1.775 -5.121,-4.265 -7.018,-7.29 -2.598,-4.142 -2.397,-8.201 -3.251,-12.856 -2.973,-0.288 -5.78,0.713 -8.733,0.336 -1.374,-0.175 -2.688,-0.518 -4,-0.767 -1.22,-0.234 -3.013,0.019 -4.046,-0.675 -1.119,1.115 -0.358,5.505 -0.358,7.103 0,1.416 0.07,2.837 0.105,4.252 0.212,8.324 0.2,16.641 0.246,24.967 0.058,11.019 0.086,22.039 0.118,33.06 0.035,11.479 0.079,22.957 0.125,34.437 0.038,9 0.07,18.001 0.099,27.002 0.01,3.651 0.027,7.302 0.04,10.953 h 127.3 v -0.176 C 0.044,109.206 0.023,104.954 0.006,100.702 -0.031,91.778 -0.075,82.852 -0.11,73.928 -0.152,63.367 -0.205,52.803 -0.247,42.24 -0.284,33.044 -0.323,23.848 -0.37,14.651 -0.397,9.758 -0.123,4.877 0,0"
             style="fill:#008f4f;fill-opacity:1;fill-rule:nonzero;stroke:none"
             id="path2814" />
        </g>
        <g
           id="g2816"
           transform="translate(145.9227,177.7263)">
          <path
             d="m 0,0 c 0.113,2.356 0.159,4.719 0.162,7.032 0.002,2.217 0.608,4.484 0.483,6.618 -0.187,3.272 -0.481,6.522 -0.481,9.86 0,5.03 -0.498,9.906 -0.484,14.802 0.002,0.954 0.14,1.802 0.343,2.72 0.233,1.053 -0.166,2.035 -0.166,3.1 0,0.469 0.014,0.943 0,1.412 -0.014,0.492 -0.221,0.846 -0.21,1.301 -1.808,0.259 -3.827,0.027 -5.661,0.028 -1.668,0 -3.146,-0.195 -4.818,-0.183 -0.849,0.006 -1.531,-0.181 -2.4,-0.183 -0.901,-0.003 -1.69,0.185 -2.593,0.183 -1.999,-0.004 -3.994,0 -5.992,0 -1.817,0 -3.643,-0.114 -5.465,-0.133 -9.076,-0.095 -18.115,-0.898 -27.195,-0.334 -4.115,0.256 -7.839,0.632 -11.943,-0.07 -4.282,-0.734 -8.503,-1.541 -12.852,-1.804 -3.967,-0.242 -9.596,0.427 -12.464,-2.795 -0.471,-0.527 -0.984,-0.982 -1.381,-1.589 -0.702,-1.078 -1.154,-2.111 -2.162,-2.912 -1.23,-0.973 -2.328,-1.804 -3.596,-2.672 -1.906,-1.302 -3.067,-2.803 -4.438,-4.604 -1.827,-2.403 -3.623,-4.832 -5.465,-7.224 -2.296,-2.984 -5.128,-5.856 -6.745,-9.289 -1.979,-4.195 -4.595,-8.053 -6.599,-12.238 -1.781,-3.72 -2.109,-7.656 -2.088,-11.738 0.013,-2.279 0.093,-4.545 0.775,-6.722 0.484,-1.547 1.292,-2.958 1.828,-4.484 0.597,-1.699 1.063,-3.465 2.039,-4.991 2.012,-3.147 4.465,-6.12 6.308,-9.331 0.628,-1.093 0.215,-2.315 0.09,-3.623 -0.101,-1.052 0.083,-2.044 0.191,-3.081 0.223,-2.1 0.989,-4.229 1.595,-6.288 0.578,-1.966 1.588,-3.809 2.545,-5.611 1.216,-2.293 2.607,-4.614 4.404,-6.503 1.932,-2.029 5.01,-2.859 7.684,-3.257 8.823,-1.317 18.126,-0.361 26.986,0.072 7.983,0.392 16.303,0.304 24.178,1.839 4.757,0.928 9.093,3.087 13.427,5.173 -5.839,-1.92 -1.108,-8.967 3.282,-8.563 0.889,0.082 1.855,0.412 2.675,0.667 0.747,0.231 0.99,0.579 1.417,1.241 0.277,0.426 0.603,0.784 0.919,1.172 0.375,0.456 0.758,1.443 1.166,1.781 0.561,0.462 1.756,-0.093 2.497,-0.308 1.031,-0.297 2.041,-0.544 3.103,-0.701 1.775,-0.262 3.118,-1.053 4.753,-1.605 2.069,-0.696 4.344,-0.039 6.461,-0.308 1.955,-0.246 4.111,-0.024 5.929,-0.843 0.341,0.395 0.4,1.709 0.371,2.247 -0.041,0.77 0.052,1.55 -0.23,2.277 -0.19,0.486 -0.509,0.72 -0.618,1.298 -0.215,1.148 0.11,2.381 0.11,3.536 -0.001,1.688 0.242,3.319 0.245,4.908 0.001,1.531 -0.246,2.815 -0.248,4.369 -0.001,1.747 -0.332,3.556 -0.249,5.243 0.167,3.332 0.008,6.535 0.006,9.893 -0.001,3.589 0.242,7.154 0.243,10.693 0.002,2.428 -0.238,4.734 -0.244,7.111 -0.003,1.086 0.004,2.172 0.004,3.259 C -0.569,-6.757 -0.162,-3.396 0,0"
             style="fill:#c14d6e;fill-opacity:1;fill-rule:nonzero;stroke:none"
             id="path2818" />
        </g>
        <g
           id="g2820"
           transform="translate(66.7842,119.0186)">
          <path
             d="m 0,0 c 3.273,3.472 3.403,10.197 2.866,14.631 -0.692,5.72 -2.762,11.543 -4.711,16.954 -0.874,2.429 -2.141,4.664 -3.174,7.019 -0.379,0.864 -0.65,1.554 -1.242,2.303 -0.659,0.832 -0.888,1.323 -0.896,2.38 -0.011,1.627 -0.039,3.788 0.719,5.191 -0.874,0.141 -1.797,0.129 -2.634,0.22 -0.869,0.092 -1.948,0.083 -2.808,-0.028 -0.056,-1.045 -0.391,-1.948 -0.388,-3.004 0.003,-0.866 0.265,-2.318 0.019,-3.13 -0.269,-0.894 -1.578,-0.639 -2.373,-0.797 -0.778,-0.154 -1.73,-0.309 -2.562,-0.147 -0.161,1.256 0.038,2.331 0.257,3.535 0.259,1.445 0.142,3.094 0.142,4.56 0,1.871 -0.349,4.003 0.272,5.804 0.238,0.69 0.385,1.162 0.406,1.913 0.019,0.626 -0.073,0.9 0.654,0.989 0.849,0.105 1.95,0.088 2.796,-0.029 -0.396,-0.984 -0.184,-2.324 -0.177,-3.37 0.006,-1.038 0.009,-2.54 0.455,-3.506 0.524,-1.141 4.622,-0.752 5.754,-0.38 0.08,1.176 -0.243,2.326 -0.283,3.484 -0.042,1.242 0.42,2.453 0.294,3.712 -0.086,0.873 -0.464,1.688 -0.56,2.594 -0.132,1.22 -0.081,2.455 -0.227,3.676 -0.241,2.029 -0.184,2.906 2.11,3.235 1.835,0.262 3.696,0.077 5.538,0.339 2.118,0.3 4.154,0.324 6.289,0.214 7.409,-0.378 14.707,-1.099 22.127,-0.767 1.182,0.053 4.024,0.717 4.899,-0.26 0.616,-0.689 0.459,-2.245 0.508,-3.085 0.098,-1.671 0.431,-3.358 0.459,-5.007 0.031,-1.964 -0.2,-3.965 -0.291,-5.926 -0.18,-3.987 -0.332,-7.975 -0.426,-11.963 -0.067,-2.93 -0.108,-5.902 -0.006,-8.831 0.04,-1.062 0.305,-2.01 0.274,-3.093 -0.037,-1.362 -0.105,-2.826 0.092,-4.178 0.136,-0.929 0.37,-1.717 -0.393,-2.48 -0.532,-0.53 -1.155,-0.923 -1.603,-1.51 -0.667,-0.87 -1.09,-1.931 -1.728,-2.847 -1.349,-1.936 -1.726,-3.475 -1.922,-5.808 -0.235,-2.793 -0.1,-5.373 0.371,-8.118 0.3,-1.744 0.795,-2.863 1.968,-4.109 1.202,-1.274 1.916,-2.884 3.691,-3.513 1.577,-0.559 3.22,0.114 4.623,0.839 1.126,0.579 2.371,1.628 3.679,1.725 1.307,0.098 2.499,-0.978 3.507,-1.662 3.344,-2.276 6.981,-3.799 9.189,-7.358 1.428,-2.301 2.775,-5.111 2.895,-7.86 0.121,-2.771 -1.654,-4.343 -4.2,-4.998 -3.34,-0.859 -6.914,-0.659 -10.326,-1.025 -2.165,-0.231 -4.316,-0.613 -6.447,-1.062 -1.058,-0.222 -2.222,-0.358 -3.244,-0.713 -0.742,-0.257 -1.415,-0.743 -2.107,-1.147 -3.254,-1.899 -6.358,-4.067 -9.729,-5.763 -1.846,-0.925 -3.765,-1.715 -5.774,-2.214 -6.169,-1.535 -11.125,2.563 -15.994,5.806 -3.847,2.562 -7.514,5.39 -10.957,8.475 -1.731,1.551 -3.408,3.169 -5.025,4.839 -1.529,1.579 -2.887,3.548 -4.582,4.934 -1.145,0.935 -3.789,2.923 -1.791,4.47 2.05,1.586 5.484,1.386 7.897,1.629 1.218,0.122 2.013,0.225 3.229,-0.028 1.02,-0.212 1.681,-0.561 2.708,-0.233 C -5.256,-3.638 -1.912,-2.03 0,0"
             style="fill:#ffc700;fill-opacity:1;fill-rule:nonzero;stroke:none"
             id="path2822" />
        </g>
        <g
           id="g2824"
           transform="translate(61.0956,93.4579)">
          <path
             d="m 0,0 c -0.012,-3.769 0.408,-7.591 0.338,-11.32 -0.073,-3.997 -0.221,-7.99 -0.203,-11.986 0.01,-2.229 0.067,-4.459 0.215,-6.681 0.068,-1.035 -0.196,-2.166 -0.231,-3.265 -0.041,-1.315 -0.194,-2.618 -0.235,-3.959 -0.057,-1.844 -1.027,-5.097 0.09,-6.778 1.851,0.432 3.959,0.644 5.877,0.702 2.067,0.065 4.245,-0.481 6.427,-0.207 0.133,1.031 -0.168,2.07 -0.064,3.103 0.103,1.046 0.226,1.828 0.223,2.908 -0.007,1.786 -0.187,3.331 -0.339,5.055 -0.389,4.363 -0.755,8.778 -0.757,13.172 -10e-4,3.736 0.002,7.47 0,11.204 -10e-4,2.015 0.893,7.107 -0.349,8.627 C 9.188,-0.057 7.481,-0.12 5.49,0.08 3.581,0.274 0.825,-0.041 -0.972,0.802 c 0.081,0.098 0.16,0.196 0.24,0.295"
             style="fill:#008f4f;fill-opacity:1;fill-rule:nonzero;stroke:none"
             id="path2826" />
        </g>
        <g
           id="g2828"
           transform="translate(83.044,93.8237)">
          <path
             d="m 0,0 c -0.121,-1.902 0.246,-4.27 0.478,-6.198 0.278,-2.292 0.485,-4.668 0.619,-6.97 0.24,-4.111 0,-8.295 0.002,-12.415 0.004,-6.108 -0.603,-12.584 0.054,-18.645 4.154,1.588 9.047,0.106 13.424,0.751 0.301,8.617 0.07,17.285 0.048,25.907 -0.009,3.242 -0.006,6.485 0.022,9.726 0.016,2.053 0.768,7.442 -1.642,8.104 C 12.104,0.509 10.752,0.042 9.827,0.003 8.453,-0.054 7.103,0.092 5.742,0.246 3.801,0.467 1.945,0.623 0,0.366"
             style="fill:#008f4f;fill-opacity:1;fill-rule:nonzero;stroke:none"
             id="path2830" />
        </g>
        <g
           id="g2832"
           transform="translate(44.1471,230.1467)">
          <path
             d="M 0,0 H -0.975"
             style="fill:#c14d6e;fill-opacity:1;fill-rule:nonzero;stroke:none"
             id="path2834" />
        </g>
      </g>
      <g
         id="g2836"
         transform="translate(84.6329,94.2252)">
        <path
           d="M 0,0 H 44.503"
           style="fill:none;stroke:#191a21;stroke-width:1.756;stroke-linecap:round;stroke-linejoin:round;stroke-miterlimit:10;stroke-dasharray:none;stroke-opacity:1"
           id="path2838" />
      </g>
      <g
         id="g2840">
        <g
           id="g2842"
           clip-path="url(#clipPath2846)">
          <g
             id="g2848"
             transform="translate(53.7766,115.5878)">
            <path
               d="m 0,0 c -5.061,-1.251 -8.367,-1.751 -12.683,-4.96 -5.145,-3.824 -7.322,-10.157 -7.311,-16.403 h 37.927"
               style="fill:none;stroke:#191a21;stroke-width:1.756;stroke-linecap:round;stroke-linejoin:round;stroke-miterlimit:10;stroke-dasharray:none;stroke-opacity:1"
               id="path2850" />
          </g>
          <g
             id="g2852"
             transform="translate(49.5256,177.762)">
            <path
               d="m 0,0 c 0.265,0.929 2.098,1.904 2.894,2.521 1.063,0.824 2.104,1.703 3.152,2.57 2.081,1.722 4.017,3.63 5.979,5.506 1.697,1.627 3.02,3.266 4.183,5.323 0.626,1.109 0.983,2.322 1.51,3.488 0.527,1.164 0.682,3.276 1.545,4.112 -0.007,-0.135 -0.011,-0.265 -0.011,-0.4"
               style="fill:none;stroke:#191a21;stroke-width:1.756;stroke-linecap:round;stroke-linejoin:round;stroke-miterlimit:10;stroke-dasharray:none;stroke-opacity:1"
               id="path2854" />
          </g>
          <g
             id="g2856"
             transform="translate(52.6835,116.7838)">
            <path
               d="M 0,0 C 5.032,0.963 11.001,3.035 10.377,8.986 9.978,12.8 6.608,17.402 4.119,20.33 c -2.543,2.991 -6.626,5.568 -10.683,4.362 -2.501,-0.745 -7.094,-5.218 -5.631,-9.365"
               style="fill:none;stroke:#191a21;stroke-width:1.756;stroke-linecap:round;stroke-linejoin:round;stroke-miterlimit:10;stroke-dasharray:none;stroke-opacity:1"
               id="path2858" />
          </g>
          <g
             id="g2860"
             transform="translate(145.597,130.1586)">
            <path
               d="m 0,0 c -1.187,-0.792 -2.994,-1.004 -4.378,-1.566 -1.939,-0.79 -3.924,-1.578 -5.925,-2.237 -8.491,-2.787 -17.039,-5.168 -25.448,-8.215 -2.602,-0.94 -5.181,-3.353 -8.115,-2.968 -7.739,1.014 -7.221,17.159 -4.23,22.125 3.741,6.213 9.815,10.519 15.697,14.512 4.192,2.843 7.732,6.408 12.531,8.234 4.108,1.564 8.395,2.675 12.546,4.12 1.732,0.603 3.715,1.936 5.433,2.102 0.369,-0.015 0.347,-0.021 -0.063,-0.012"
               style="fill:none;stroke:#191a21;stroke-width:1.756;stroke-linecap:round;stroke-linejoin:round;stroke-miterlimit:10;stroke-dasharray:none;stroke-opacity:1"
               id="path2862" />
          </g>
          <g
             id="g2864"
             transform="translate(103.6521,115.2834)">
            <path
               d="m 0,0 c -3.169,0 -4.134,11.748 -4.106,13.829 0.054,3.97 1.803,7.007 5.037,9.36 3.949,2.875 12.478,5.964 16.332,1.493 2.701,-3.133 3.231,-15.016 -0.372,-17.907"
               style="fill:none;stroke:#191a21;stroke-width:1.756;stroke-linecap:round;stroke-linejoin:round;stroke-miterlimit:10;stroke-dasharray:none;stroke-opacity:1"
               id="path2866" />
          </g>
          <g
             id="g2868"
             transform="translate(56.4616,167.2279)">
            <path
               d="m 0,0 c 4.963,-7.316 7.948,-14.552 10.31,-23.055 2.079,-7.484 6.083,-18.06 -0.067,-24.58 -2.072,-2.197 -5.428,-4.811 -8.6,-4.873 -4.125,-0.079 -7.181,4.219 -9.517,7.053 -5.122,6.214 -10.232,12.446 -15.181,18.802 -1.492,1.919 -2.992,3.593 -4.113,5.786 -1.16,2.268 -1.933,4.84 -3.386,6.946 -0.914,1.327 -2.767,5.629 -3.315,7.184 -0.549,1.554 -0.486,4.776 -0.722,6.771 -0.292,2.512 -0.165,4.776 0.608,7.205 1.584,4.982 3.99,9.483 6.729,13.893 3.482,5.613 6.946,11.211 11.077,16.394 2.398,3.01 4.913,6.037 7.904,8.485 0.996,0.817 2.23,1.393 3.124,2.335 1.241,1.304 4.202,4.269 4.202,4.269 3.17,2.683 6.79,2.091 9.448,2.398 7.264,0.841 14.758,2.062 22.118,2.053 6.126,-0.006 12.254,-0.002 18.379,0 7.017,0.003 14.036,0.003 21.055,-0.002 3.701,-10e-4 7.324,-0.367 10.934,-0.478 2.995,-0.095 6.114,0.282 9.076,-0.082 -0.091,-0.398 -0.216,-1.037 -0.44,-1.39"
               style="fill:none;stroke:#191a21;stroke-width:1.756;stroke-linecap:round;stroke-linejoin:round;stroke-miterlimit:10;stroke-dasharray:none;stroke-opacity:1"
               id="path2870" />
          </g>
          <g
             id="g2872"
             transform="translate(101.1515,177.2276)">
            <path
               d="M 0,0 C 1.646,0.773 3.415,1.162 4.976,2.196 5.73,2.695 6.465,3.215 7.173,3.784 7.708,4.21 8.119,4.773 8.67,5.18 c 0.519,0.383 1.098,0.478 1.631,0.815 1.452,0.913 2.7,2.31 3.904,3.516"
               style="fill:none;stroke:#191a21;stroke-width:1.756;stroke-linecap:round;stroke-linejoin:round;stroke-miterlimit:10;stroke-dasharray:none;stroke-opacity:1"
               id="path2874" />
          </g>
          <g
             id="g2876"
             transform="translate(33.4158,140.4011)">
            <path
               d="m 0,0 c -2.921,-1.63 2.763,-14.866 3.816,-17.276 2.207,-5.034 3.045,-6.879 7.404,-10.279"
               style="fill:none;stroke:#191a21;stroke-width:1.756;stroke-linecap:round;stroke-linejoin:round;stroke-miterlimit:10;stroke-dasharray:none;stroke-opacity:1"
               id="path2878" />
          </g>
          <g
             id="g2880"
             transform="translate(101.7002,160.2176)">
            <path
               d="m 0,0 c -0.009,-0.089 -0.047,-0.16 -0.114,-0.212 2.969,2.032 6.912,2.42 10.446,1.949 1.371,-0.183 3.749,-1.19 5.487,-6.585"
               style="fill:none;stroke:#191a21;stroke-width:1.756;stroke-linecap:round;stroke-linejoin:round;stroke-miterlimit:10;stroke-dasharray:none;stroke-opacity:1"
               id="path2882" />
          </g>
        </g>
      </g>
      <g
         id="g2884"
         transform="translate(73.1673,49.5611)">
        <path
           d="M 0,0 V 134.983 H 10.243 V 0.732"
           style="fill:none;stroke:#191a21;stroke-width:1.756;stroke-linecap:round;stroke-linejoin:round;stroke-miterlimit:10;stroke-dasharray:none;stroke-opacity:1"
           id="path2886" />
      </g>
      <g
         id="g2888">
        <g
           id="g2890"
           clip-path="url(#clipPath2894)">
          <g
             id="g2896"
             transform="translate(145.9628,93.4579)">
            <path
               d="M 0,0 H -47.921 V -43.897 H -84.867 V 0 h -42.8"
               style="fill:none;stroke:#191a21;stroke-width:1.756;stroke-linecap:round;stroke-linejoin:round;stroke-miterlimit:10;stroke-dasharray:none;stroke-opacity:1"
               id="path2898" />
          </g>
          <g
             id="g2900"
             transform="translate(111.2112,118.3327)">
            <path
               d="m 0,0 c 0.897,-1.907 4.173,-3.092 5.844,-4.178 2.407,-1.564 4.962,-3.527 6.836,-5.756 1.635,-1.943 2.783,-4.533 3.53,-6.941 0.399,-1.287 0.781,-2.567 0.992,-3.814 0.133,-0.785 0.218,-3.592 0.723,-3.454"
               style="fill:none;stroke:#191a21;stroke-width:1.756;stroke-linecap:round;stroke-linejoin:round;stroke-miterlimit:10;stroke-dasharray:none;stroke-opacity:1"
               id="path2902" />
          </g>
          <g
             id="g2904"
             transform="translate(120.7221,111.7482)">
            <path
               d="m 0,0 c 0.164,2.027 2.746,4.75 3.75,6.511 0.528,0.928 1.216,1.9 1.702,2.851 0.315,0.616 1.011,2.901 1.133,2.71"
               style="fill:none;stroke:#191a21;stroke-width:1.756;stroke-linecap:round;stroke-linejoin:round;stroke-miterlimit:10;stroke-dasharray:none;stroke-opacity:1"
               id="path2906" />
          </g>
          <g
             id="g2908"
             transform="translate(124.0144,116.5037)">
            <path
               d="m 0,0 c -0.082,0.091 1.659,-0.228 2.392,-0.389 1.111,-0.243 2.222,-0.729 3.325,-1.054 1.865,-0.554 4.011,-0.881 5.889,-1.137 1.382,-0.187 10.786,-0.058 10.708,-1.81"
               style="fill:none;stroke:#191a21;stroke-width:1.756;stroke-linecap:round;stroke-linejoin:round;stroke-miterlimit:10;stroke-dasharray:none;stroke-opacity:1"
               id="path2910" />
          </g>
        </g>
      </g>
      <g
         id="g2912"
         transform="translate(78.4715,53.0363)">
        <path
           d="M 0,0 H 4.755"
           style="fill:none;stroke:#191a21;stroke-width:1.756;stroke-linecap:round;stroke-linejoin:round;stroke-miterlimit:10;stroke-dasharray:none;stroke-opacity:1"
           id="path2914" />
      </g>
      <g
         id="g2916"
         transform="translate(78.4715,56.5114)">
        <path
           d="M 0,0 H 4.755"
           style="fill:none;stroke:#191a21;stroke-width:1.756;stroke-linecap:round;stroke-linejoin:round;stroke-miterlimit:10;stroke-dasharray:none;stroke-opacity:1"
           id="path2918" />
      </g>
      <g
         id="g2920"
         transform="translate(78.4715,59.9866)">
        <path
           d="M 0,0 H 4.755"
           style="fill:none;stroke:#191a21;stroke-width:1.756;stroke-linecap:round;stroke-linejoin:round;stroke-miterlimit:10;stroke-dasharray:none;stroke-opacity:1"
           id="path2922" />
      </g>
      <g
         id="g2924"
         transform="translate(78.4715,63.4618)">
        <path
           d="M 0,0 H 4.755"
           style="fill:none;stroke:#191a21;stroke-width:1.756;stroke-linecap:round;stroke-linejoin:round;stroke-miterlimit:10;stroke-dasharray:none;stroke-opacity:1"
           id="path2926" />
      </g>
      <g
         id="g2928"
         transform="translate(75.8493,66.9369)">
        <path
           d="M 0,0 H 7.378"
           style="fill:none;stroke:#191a21;stroke-width:1.756;stroke-linecap:round;stroke-linejoin:round;stroke-miterlimit:10;stroke-dasharray:none;stroke-opacity:1"
           id="path2930" />
      </g>
      <g
         id="g2932"
         transform="translate(78.4715,70.4121)">
        <path
           d="M 0,0 H 4.755"
           style="fill:none;stroke:#191a21;stroke-width:1.756;stroke-linecap:round;stroke-linejoin:round;stroke-miterlimit:10;stroke-dasharray:none;stroke-opacity:1"
           id="path2934" />
      </g>
      <g
         id="g2936"
         transform="translate(78.4715,73.8873)">
        <path
           d="M 0,0 H 4.755"
           style="fill:none;stroke:#191a21;stroke-width:1.756;stroke-linecap:round;stroke-linejoin:round;stroke-miterlimit:10;stroke-dasharray:none;stroke-opacity:1"
           id="path2938" />
      </g>
      <g
         id="g2940"
         transform="translate(78.4715,77.3624)">
        <path
           d="M 0,0 H 4.755"
           style="fill:none;stroke:#191a21;stroke-width:1.756;stroke-linecap:round;stroke-linejoin:round;stroke-miterlimit:10;stroke-dasharray:none;stroke-opacity:1"
           id="path2942" />
      </g>
      <g
         id="g2944"
         transform="translate(78.4715,80.8376)">
        <path
           d="M 0,0 H 4.755"
           style="fill:none;stroke:#191a21;stroke-width:1.756;stroke-linecap:round;stroke-linejoin:round;stroke-miterlimit:10;stroke-dasharray:none;stroke-opacity:1"
           id="path2946" />
      </g>
      <g
         id="g2948"
         transform="translate(75.8493,84.3127)">
        <path
           d="M 0,0 H 7.378"
           style="fill:none;stroke:#191a21;stroke-width:1.756;stroke-linecap:round;stroke-linejoin:round;stroke-miterlimit:10;stroke-dasharray:none;stroke-opacity:1"
           id="path2950" />
      </g>
      <g
         id="g2952"
         transform="translate(78.4715,87.7879)">
        <path
           d="M 0,0 H 4.755"
           style="fill:none;stroke:#191a21;stroke-width:1.756;stroke-linecap:round;stroke-linejoin:round;stroke-miterlimit:10;stroke-dasharray:none;stroke-opacity:1"
           id="path2954" />
      </g>
      <g
         id="g2956"
         transform="translate(78.4715,91.2631)">
        <path
           d="M 0,0 H 4.755"
           style="fill:none;stroke:#191a21;stroke-width:1.756;stroke-linecap:round;stroke-linejoin:round;stroke-miterlimit:10;stroke-dasharray:none;stroke-opacity:1"
           id="path2958" />
      </g>
      <g
         id="g2960"
         transform="translate(78.4715,94.7382)">
        <path
           d="M 0,0 H 4.755"
           style="fill:none;stroke:#191a21;stroke-width:1.756;stroke-linecap:round;stroke-linejoin:round;stroke-miterlimit:10;stroke-dasharray:none;stroke-opacity:1"
           id="path2962" />
      </g>
      <g
         id="g2964"
         transform="translate(78.4715,98.2134)">
        <path
           d="M 0,0 H 4.755"
           style="fill:none;stroke:#191a21;stroke-width:1.756;stroke-linecap:round;stroke-linejoin:round;stroke-miterlimit:10;stroke-dasharray:none;stroke-opacity:1"
           id="path2966" />
      </g>
      <g
         id="g2968"
         transform="translate(75.8493,101.6886)">
        <path
           d="M 0,0 H 7.378"
           style="fill:none;stroke:#191a21;stroke-width:1.756;stroke-linecap:round;stroke-linejoin:round;stroke-miterlimit:10;stroke-dasharray:none;stroke-opacity:1"
           id="path2970" />
      </g>
      <g
         id="g2972"
         transform="translate(78.4715,105.1637)">
        <path
           d="M 0,0 H 4.755"
           style="fill:none;stroke:#191a21;stroke-width:1.756;stroke-linecap:round;stroke-linejoin:round;stroke-miterlimit:10;stroke-dasharray:none;stroke-opacity:1"
           id="path2974" />
      </g>
      <g
         id="g2976"
         transform="translate(78.4715,108.6389)">
        <path
           d="M 0,0 H 4.755"
           style="fill:none;stroke:#191a21;stroke-width:1.756;stroke-linecap:round;stroke-linejoin:round;stroke-miterlimit:10;stroke-dasharray:none;stroke-opacity:1"
           id="path2978" />
      </g>
      <g
         id="g2980"
         transform="translate(78.4715,112.114)">
        <path
           d="M 0,0 H 4.755"
           style="fill:none;stroke:#191a21;stroke-width:1.756;stroke-linecap:round;stroke-linejoin:round;stroke-miterlimit:10;stroke-dasharray:none;stroke-opacity:1"
           id="path2982" />
      </g>
      <g
         id="g2984"
         transform="translate(78.4715,115.5892)">
        <path
           d="M 0,0 H 4.755"
           style="fill:none;stroke:#191a21;stroke-width:1.756;stroke-linecap:round;stroke-linejoin:round;stroke-miterlimit:10;stroke-dasharray:none;stroke-opacity:1"
           id="path2986" />
      </g>
      <g
         id="g2988"
         transform="translate(75.8493,119.0644)">
        <path
           d="M 0,0 H 7.378"
           style="fill:none;stroke:#191a21;stroke-width:1.756;stroke-linecap:round;stroke-linejoin:round;stroke-miterlimit:10;stroke-dasharray:none;stroke-opacity:1"
           id="path2990" />
      </g>
      <g
         id="g2992"
         transform="translate(78.4715,122.5395)">
        <path
           d="M 0,0 H 4.755"
           style="fill:none;stroke:#191a21;stroke-width:1.756;stroke-linecap:round;stroke-linejoin:round;stroke-miterlimit:10;stroke-dasharray:none;stroke-opacity:1"
           id="path2994" />
      </g>
      <g
         id="g2996"
         transform="translate(78.4715,126.0147)">
        <path
           d="M 0,0 H 4.755"
           style="fill:none;stroke:#191a21;stroke-width:1.756;stroke-linecap:round;stroke-linejoin:round;stroke-miterlimit:10;stroke-dasharray:none;stroke-opacity:1"
           id="path2998" />
      </g>
      <g
         id="g3000"
         transform="translate(78.4715,129.4899)">
        <path
           d="M 0,0 H 4.755"
           style="fill:none;stroke:#191a21;stroke-width:1.756;stroke-linecap:round;stroke-linejoin:round;stroke-miterlimit:10;stroke-dasharray:none;stroke-opacity:1"
           id="path3002" />
      </g>
      <g
         id="g3004"
         transform="translate(78.4715,132.965)">
        <path
           d="M 0,0 H 4.755"
           style="fill:none;stroke:#191a21;stroke-width:1.756;stroke-linecap:round;stroke-linejoin:round;stroke-miterlimit:10;stroke-dasharray:none;stroke-opacity:1"
           id="path3006" />
      </g>
      <g
         id="g3008"
         transform="translate(75.8493,136.4402)">
        <path
           d="M 0,0 H 7.378"
           style="fill:none;stroke:#191a21;stroke-width:1.756;stroke-linecap:round;stroke-linejoin:round;stroke-miterlimit:10;stroke-dasharray:none;stroke-opacity:1"
           id="path3010" />
      </g>
      <g
         id="g3012"
         transform="translate(78.4715,139.9153)">
        <path
           d="M 0,0 H 4.755"
           style="fill:none;stroke:#191a21;stroke-width:1.756;stroke-linecap:round;stroke-linejoin:round;stroke-miterlimit:10;stroke-dasharray:none;stroke-opacity:1"
           id="path3014" />
      </g>
      <g
         id="g3016"
         transform="translate(78.4715,143.3905)">
        <path
           d="M 0,0 H 4.755"
           style="fill:none;stroke:#191a21;stroke-width:1.756;stroke-linecap:round;stroke-linejoin:round;stroke-miterlimit:10;stroke-dasharray:none;stroke-opacity:1"
           id="path3018" />
      </g>
      <g
         id="g3020"
         transform="translate(78.4715,146.8657)">
        <path
           d="M 0,0 H 4.755"
           style="fill:none;stroke:#191a21;stroke-width:1.756;stroke-linecap:round;stroke-linejoin:round;stroke-miterlimit:10;stroke-dasharray:none;stroke-opacity:1"
           id="path3022" />
      </g>
      <g
         id="g3024"
         transform="translate(78.4715,150.3408)">
        <path
           d="M 0,0 H 4.755"
           style="fill:none;stroke:#191a21;stroke-width:1.756;stroke-linecap:round;stroke-linejoin:round;stroke-miterlimit:10;stroke-dasharray:none;stroke-opacity:1"
           id="path3026" />
      </g>
      <g
         id="g3028"
         transform="translate(75.8493,153.816)">
        <path
           d="M 0,0 H 7.378"
           style="fill:none;stroke:#191a21;stroke-width:1.756;stroke-linecap:round;stroke-linejoin:round;stroke-miterlimit:10;stroke-dasharray:none;stroke-opacity:1"
           id="path3030" />
      </g>
      <g
         id="g3032"
         transform="translate(78.4715,157.2912)">
        <path
           d="M 0,0 H 4.755"
           style="fill:none;stroke:#191a21;stroke-width:1.756;stroke-linecap:round;stroke-linejoin:round;stroke-miterlimit:10;stroke-dasharray:none;stroke-opacity:1"
           id="path3034" />
      </g>
      <g
         id="g3036"
         transform="translate(78.4715,160.7663)">
        <path
           d="M 0,0 H 4.755"
           style="fill:none;stroke:#191a21;stroke-width:1.756;stroke-linecap:round;stroke-linejoin:round;stroke-miterlimit:10;stroke-dasharray:none;stroke-opacity:1"
           id="path3038" />
      </g>
      <g
         id="g3040"
         transform="translate(78.4715,164.2415)">
        <path
           d="M 0,0 H 4.755"
           style="fill:none;stroke:#191a21;stroke-width:1.756;stroke-linecap:round;stroke-linejoin:round;stroke-miterlimit:10;stroke-dasharray:none;stroke-opacity:1"
           id="path3042" />
      </g>
      <g
         id="g3044"
         transform="translate(78.4715,167.7167)">
        <path
           d="M 0,0 H 4.755"
           style="fill:none;stroke:#191a21;stroke-width:1.756;stroke-linecap:round;stroke-linejoin:round;stroke-miterlimit:10;stroke-dasharray:none;stroke-opacity:1"
           id="path3046" />
      </g>
      <g
         id="g3048"
         transform="translate(75.8493,171.1918)">
        <path
           d="M 0,0 H 7.378"
           style="fill:none;stroke:#191a21;stroke-width:1.756;stroke-linecap:round;stroke-linejoin:round;stroke-miterlimit:10;stroke-dasharray:none;stroke-opacity:1"
           id="path3050" />
      </g>
      <g
         id="g3052"
         transform="translate(78.4715,174.667)">
        <path
           d="M 0,0 H 4.755"
           style="fill:none;stroke:#191a21;stroke-width:1.756;stroke-linecap:round;stroke-linejoin:round;stroke-miterlimit:10;stroke-dasharray:none;stroke-opacity:1"
           id="path3054" />
      </g>
      <g
         id="g3056"
         transform="translate(78.4715,178.1422)">
        <path
           d="M 0,0 H 4.755"
           style="fill:none;stroke:#191a21;stroke-width:1.756;stroke-linecap:round;stroke-linejoin:round;stroke-miterlimit:10;stroke-dasharray:none;stroke-opacity:1"
           id="path3058" />
      </g>
      <g
         id="g3060"
         transform="translate(88.6511,100.1624)">
        <path
           d="M 0,0 H -4.755"
           style="fill:none;stroke:#191a21;stroke-width:1.756;stroke-linecap:round;stroke-linejoin:round;stroke-miterlimit:10;stroke-dasharray:none;stroke-opacity:1"
           id="path3062" />
      </g>
      <g
         id="g3064"
         transform="translate(91.2732,103.6376)">
        <path
           d="M 0,0 H -7.378"
           style="fill:none;stroke:#191a21;stroke-width:1.756;stroke-linecap:round;stroke-linejoin:round;stroke-miterlimit:10;stroke-dasharray:none;stroke-opacity:1"
           id="path3066" />
      </g>
      <g
         id="g3068"
         transform="translate(88.6511,107.1127)">
        <path
           d="M 0,0 H -4.755"
           style="fill:none;stroke:#191a21;stroke-width:1.756;stroke-linecap:round;stroke-linejoin:round;stroke-miterlimit:10;stroke-dasharray:none;stroke-opacity:1"
           id="path3070" />
      </g>
      <g
         id="g3072"
         transform="translate(88.6511,110.5879)">
        <path
           d="M 0,0 H -4.755"
           style="fill:none;stroke:#191a21;stroke-width:1.756;stroke-linecap:round;stroke-linejoin:round;stroke-miterlimit:10;stroke-dasharray:none;stroke-opacity:1"
           id="path3074" />
      </g>
      <g
         id="g3076"
         transform="translate(88.6511,114.063)">
        <path
           d="M 0,0 H -4.755"
           style="fill:none;stroke:#191a21;stroke-width:1.756;stroke-linecap:round;stroke-linejoin:round;stroke-miterlimit:10;stroke-dasharray:none;stroke-opacity:1"
           id="path3078" />
      </g>
      <g
         id="g3080"
         transform="translate(88.6511,117.5382)">
        <path
           d="M 0,0 H -4.755"
           style="fill:none;stroke:#191a21;stroke-width:1.756;stroke-linecap:round;stroke-linejoin:round;stroke-miterlimit:10;stroke-dasharray:none;stroke-opacity:1"
           id="path3082" />
      </g>
      <g
         id="g3084"
         transform="translate(91.2732,121.0134)">
        <path
           d="M 0,0 H -7.378"
           style="fill:none;stroke:#191a21;stroke-width:1.756;stroke-linecap:round;stroke-linejoin:round;stroke-miterlimit:10;stroke-dasharray:none;stroke-opacity:1"
           id="path3086" />
      </g>
      <g
         id="g3088"
         transform="translate(88.6511,124.4885)">
        <path
           d="M 0,0 H -4.755"
           style="fill:none;stroke:#191a21;stroke-width:1.756;stroke-linecap:round;stroke-linejoin:round;stroke-miterlimit:10;stroke-dasharray:none;stroke-opacity:1"
           id="path3090" />
      </g>
      <g
         id="g3092"
         transform="translate(88.6511,127.9637)">
        <path
           d="M 0,0 H -4.755"
           style="fill:none;stroke:#191a21;stroke-width:1.756;stroke-linecap:round;stroke-linejoin:round;stroke-miterlimit:10;stroke-dasharray:none;stroke-opacity:1"
           id="path3094" />
      </g>
      <g
         id="g3096"
         transform="translate(88.6511,131.4389)">
        <path
           d="M 0,0 H -4.755"
           style="fill:none;stroke:#191a21;stroke-width:1.756;stroke-linecap:round;stroke-linejoin:round;stroke-miterlimit:10;stroke-dasharray:none;stroke-opacity:1"
           id="path3098" />
      </g>
      <g
         id="g3100"
         transform="translate(88.6511,134.914)">
        <path
           d="M 0,0 H -4.755"
           style="fill:none;stroke:#191a21;stroke-width:1.756;stroke-linecap:round;stroke-linejoin:round;stroke-miterlimit:10;stroke-dasharray:none;stroke-opacity:1"
           id="path3102" />
      </g>
      <g
         id="g3104"
         transform="translate(91.2732,138.3892)">
        <path
           d="M 0,0 H -7.378"
           style="fill:none;stroke:#191a21;stroke-width:1.756;stroke-linecap:round;stroke-linejoin:round;stroke-miterlimit:10;stroke-dasharray:none;stroke-opacity:1"
           id="path3106" />
      </g>
      <g
         id="g3108"
         transform="translate(88.6511,141.8644)">
        <path
           d="M 0,0 H -4.755"
           style="fill:none;stroke:#191a21;stroke-width:1.756;stroke-linecap:round;stroke-linejoin:round;stroke-miterlimit:10;stroke-dasharray:none;stroke-opacity:1"
           id="path3110" />
      </g>
      <g
         id="g3112"
         transform="translate(88.6511,145.3395)">
        <path
           d="M 0,0 H -4.755"
           style="fill:none;stroke:#191a21;stroke-width:1.756;stroke-linecap:round;stroke-linejoin:round;stroke-miterlimit:10;stroke-dasharray:none;stroke-opacity:1"
           id="path3114" />
      </g>
      <g
         id="g3116"
         transform="translate(88.6511,148.8147)">
        <path
           d="M 0,0 H -4.755"
           style="fill:none;stroke:#191a21;stroke-width:1.756;stroke-linecap:round;stroke-linejoin:round;stroke-miterlimit:10;stroke-dasharray:none;stroke-opacity:1"
           id="path3118" />
      </g>
      <g
         id="g3120"
         transform="translate(88.6511,152.2899)">
        <path
           d="M 0,0 H -4.755"
           style="fill:none;stroke:#191a21;stroke-width:1.756;stroke-linecap:round;stroke-linejoin:round;stroke-miterlimit:10;stroke-dasharray:none;stroke-opacity:1"
           id="path3122" />
      </g>
      <g
         id="g3124"
         transform="translate(91.2732,155.765)">
        <path
           d="M 0,0 H -7.378"
           style="fill:none;stroke:#191a21;stroke-width:1.756;stroke-linecap:round;stroke-linejoin:round;stroke-miterlimit:10;stroke-dasharray:none;stroke-opacity:1"
           id="path3126" />
      </g>
      <g
         id="g3128"
         transform="translate(88.6511,159.2402)">
        <path
           d="M 0,0 H -4.755"
           style="fill:none;stroke:#191a21;stroke-width:1.756;stroke-linecap:round;stroke-linejoin:round;stroke-miterlimit:10;stroke-dasharray:none;stroke-opacity:1"
           id="path3130" />
      </g>
      <g
         id="g3132"
         transform="translate(88.6511,162.7153)">
        <path
           d="M 0,0 H -4.755"
           style="fill:none;stroke:#191a21;stroke-width:1.756;stroke-linecap:round;stroke-linejoin:round;stroke-miterlimit:10;stroke-dasharray:none;stroke-opacity:1"
           id="path3134" />
      </g>
      <g
         id="g3136"
         transform="translate(88.6511,166.1905)">
        <path
           d="M 0,0 H -4.755"
           style="fill:none;stroke:#191a21;stroke-width:1.756;stroke-linecap:round;stroke-linejoin:round;stroke-miterlimit:10;stroke-dasharray:none;stroke-opacity:1"
           id="path3138" />
      </g>
      <g
         id="g3140"
         transform="translate(88.6511,169.6657)">
        <path
           d="M 0,0 H -4.755"
           style="fill:none;stroke:#191a21;stroke-width:1.756;stroke-linecap:round;stroke-linejoin:round;stroke-miterlimit:10;stroke-dasharray:none;stroke-opacity:1"
           id="path3142" />
      </g>
      <g
         id="g3144"
         transform="translate(91.2732,173.1408)">
        <path
           d="M 0,0 H -7.378"
           style="fill:none;stroke:#191a21;stroke-width:1.756;stroke-linecap:round;stroke-linejoin:round;stroke-miterlimit:10;stroke-dasharray:none;stroke-opacity:1"
           id="path3146" />
      </g>
      <g
         id="g3148"
         transform="translate(88.6511,176.616)">
        <path
           d="M 0,0 H -4.755"
           style="fill:none;stroke:#191a21;stroke-width:1.756;stroke-linecap:round;stroke-linejoin:round;stroke-miterlimit:10;stroke-dasharray:none;stroke-opacity:1"
           id="path3150" />
      </g>
      <g
         id="g3152"
         transform="translate(88.6511,180.0912)">
        <path
           d="M 0,0 H -4.755"
           style="fill:none;stroke:#191a21;stroke-width:1.756;stroke-linecap:round;stroke-linejoin:round;stroke-miterlimit:10;stroke-dasharray:none;stroke-opacity:1"
           id="path3154" />
      </g>
      <g
         id="g3156">
        <g
           id="g3158"
           clip-path="url(#clipPath3162)">
          <g
             id="g3164"
             transform="translate(59.8153,186.007)">
            <path
               d="m 0,0 c 0.004,-7.477 0.432,-17.409 0.429,-24.911 v 0.036"
               style="fill:none;stroke:#191a21;stroke-width:1.756;stroke-linecap:round;stroke-linejoin:round;stroke-miterlimit:10;stroke-dasharray:none;stroke-opacity:1"
               id="path3166" />
          </g>
        </g>
      </g>
      <g
         id="g3168"
         transform="translate(93.6182,104.4321)">
        <path
           d="M 0,0 2.806,2.804 V -5.001"
           style="fill:none;stroke:#191a21;stroke-width:1.756;stroke-linecap:round;stroke-linejoin:round;stroke-miterlimit:10;stroke-dasharray:none;stroke-opacity:1"
           id="path3170" />
      </g>
      <g
         id="g3172"
         transform="translate(96.3931,118.4242)">
        <path
           d="m 0,0 h -2.744 l 2.378,3.384"
           style="fill:none;stroke:#191a21;stroke-width:1.756;stroke-linecap:round;stroke-linejoin:round;stroke-miterlimit:10;stroke-dasharray:none;stroke-opacity:1"
           id="path3174" />
      </g>
      <g
         id="g3176">
        <g
           id="g3178"
           clip-path="url(#clipPath3182)">
          <g
             id="g3184"
             transform="translate(93.741,123.7284)">
            <path
               d="M 0,0 C -0.275,2.104 1.555,2.561 1.555,2.561"
               style="fill:none;stroke:#191a21;stroke-width:1.756;stroke-linecap:round;stroke-linejoin:round;stroke-miterlimit:10;stroke-dasharray:none;stroke-opacity:1"
               id="path3186" />
          </g>
          <g
             id="g3188"
             transform="translate(93.1008,142.6589)">
            <path
               d="M 0,0 H 4.207 L 1.19,-3.202 c 0,0 2.56,-0.273 2.56,-2.468 0,-2.195 -1.646,-2.47 -2.47,-2.47 -0.822,0 -1.646,0.824 -1.646,1.738"
               style="fill:none;stroke:#191a21;stroke-width:1.756;stroke-linecap:round;stroke-linejoin:round;stroke-miterlimit:10;stroke-dasharray:none;stroke-opacity:1"
               id="path3190" />
          </g>
        </g>
      </g>
      <g
         id="g3192"
         transform="translate(97.7192,154.5476)">
        <path
           d="m 0,0 h -5.396 l 4.206,4.938 v -8.14"
           style="fill:none;stroke:#191a21;stroke-width:1.756;stroke-linecap:round;stroke-linejoin:round;stroke-miterlimit:10;stroke-dasharray:none;stroke-opacity:1"
           id="path3194" />
      </g>
      <g
         id="g3196">
        <g
           id="g3198"
           clip-path="url(#clipPath3202)">
          <g
             id="g3204"
             transform="translate(96.7732,178.0507)">
            <path
               d="m 0,0 -3.796,-0.031 v -4.038 c 0,0 0.956,0.502 2.241,0.502 2.196,0 2.026,-2.987 2.026,-2.987 0,0 -0.199,-2.189 -2.575,-2.088 -1.465,0.06 -1.875,1.478 -1.875,1.478"
               style="fill:none;stroke:#191a21;stroke-width:1.756;stroke-linecap:round;stroke-linejoin:round;stroke-miterlimit:10;stroke-dasharray:none;stroke-opacity:1"
               id="path3206" />
          </g>
        </g>
      </g>
      <g
         id="g3208"
         transform="translate(59.8153,186.7386)">
        <path
           d="M 0,0 H 41.336 V -42.982"
           style="fill:none;stroke:#191a21;stroke-width:1.756;stroke-linecap:round;stroke-linejoin:round;stroke-miterlimit:10;stroke-dasharray:none;stroke-opacity:1"
           id="path3210" />
      </g>
      <g
         id="g3212">
        <g
           id="g3214"
           clip-path="url(#clipPath3218)">
          <g
             id="g3220"
             transform="translate(53.5351,177.3491)">
            <path
               d="M 0,0 C -0.385,-0.001 -0.793,-0.038 -1.176,-0.006 -1.792,0.047 -2.58,0.02 -3.153,0.23 -3.44,-2.925 -3.292,-6.052 -3.292,-9.218 c 0,-1.188 0.123,-2.333 0.123,-3.502 0,-0.695 0.052,-1.308 0.131,-1.985 0.068,-0.567 -0.226,-1.227 -0.112,-1.737 0.491,-0.114 1.183,0.167 1.675,0.212 0.547,0.051 1.117,0.104 1.649,0.11 0.743,0.008 0.906,0.131 0.92,0.917 0.022,1.116 -0.121,2.212 -0.114,3.329 0.019,2.353 -0.01,4.701 -0.133,7.042 -0.083,1.579 0.205,3.256 -0.137,4.791 -0.033,-0.028 -0.066,-0.054 -0.1,-0.08"
               style="fill:none;stroke:#191a21;stroke-width:1.756;stroke-linecap:round;stroke-linejoin:round;stroke-miterlimit:10;stroke-dasharray:none;stroke-opacity:1"
               id="path3222" />
          </g>
          <g
             id="g3224"
             transform="translate(50.9745,162.9612)">
            <path
               d="M 0,0 C 0.541,-0.075 1.365,0.253 1.911,0.304 2.309,0.342 3.308,0.306 3.537,0.609"
               style="fill:none;stroke:#191a21;stroke-width:1.756;stroke-linecap:round;stroke-linejoin:round;stroke-miterlimit:10;stroke-dasharray:none;stroke-opacity:1"
               id="path3226" />
          </g>
          <g
             id="g3228"
             transform="translate(50.3658,165.6433)">
            <path
               d="M 0,0 C 0.623,0 2.495,-0.313 2.926,0.121"
               style="fill:none;stroke:#191a21;stroke-width:1.756;stroke-linecap:round;stroke-linejoin:round;stroke-miterlimit:10;stroke-dasharray:none;stroke-opacity:1"
               id="path3230" />
          </g>
          <g
             id="g3232"
             transform="translate(50.6087,168.0825)">
            <path
               d="M 0,0 C 0.625,-0.015 2.006,0.114 2.926,0.121"
               style="fill:none;stroke:#191a21;stroke-width:1.756;stroke-linecap:round;stroke-linejoin:round;stroke-miterlimit:10;stroke-dasharray:none;stroke-opacity:1"
               id="path3234" />
          </g>
          <g
             id="g3236"
             transform="translate(50.4872,171.1304)">
            <path
               d="M 0,0 C 0.559,-0.066 1.226,0.187 1.769,0.247 2.324,0.307 2.843,0.36 3.414,0.366"
               style="fill:none;stroke:#191a21;stroke-width:1.756;stroke-linecap:round;stroke-linejoin:round;stroke-miterlimit:10;stroke-dasharray:none;stroke-opacity:1"
               id="path3238" />
          </g>
          <g
             id="g3240"
             transform="translate(50.7316,174.5441)">
            <path
               d="M 0,0 C 0.891,0.395 2.596,0.171 3.535,0"
               style="fill:none;stroke:#191a21;stroke-width:1.756;stroke-linecap:round;stroke-linejoin:round;stroke-miterlimit:10;stroke-dasharray:none;stroke-opacity:1"
               id="path3242" />
          </g>
          <g
             id="g3244"
             transform="translate(55.1213,167.4723)">
            <path
               d="m 0,0 c -0.228,0.001 0.215,0 0.29,0 0.202,0.001 0.404,-0.001 0.604,-0.001 0.525,0 1.051,-0.018 1.572,0.032 0.719,0.063 1.859,-0.114 2.532,0.213"
               style="fill:none;stroke:#191a21;stroke-width:1.756;stroke-linecap:round;stroke-linejoin:round;stroke-miterlimit:10;stroke-dasharray:none;stroke-opacity:1"
               id="path3246" />
          </g>
          <g
             id="g3248"
             transform="translate(54.8769,170.5202)">
            <path
               d="M 0,0 C 0.831,0 1.61,-0.121 2.438,-0.121 2.959,-0.123 4.333,0.152 4.511,-0.487"
               style="fill:none;stroke:#191a21;stroke-width:1.756;stroke-linecap:round;stroke-linejoin:round;stroke-miterlimit:10;stroke-dasharray:none;stroke-opacity:1"
               id="path3250" />
          </g>
          <g
             id="g3252"
             transform="translate(146.212,21.4206)">
            <path
               d="M 0,0 H -128.326 V 212.977 H 0 Z"
               style="fill:none;stroke:#191a21;stroke-width:1.756;stroke-linecap:round;stroke-linejoin:round;stroke-miterlimit:10;stroke-dasharray:none;stroke-opacity:1"
               id="path3254" />
          </g>
        </g>
      </g>
    </g>
  </g>
</svg>
